"Population","Parent","Count","ParentCount","Day","Animal","Stim"
"boundary","root",303127,310960,21,"0804042","Media"
"singlet","boundary",298052,303127,21,"0804042","Media"
"nonNeutro","singlet",273328,298052,21,"0804042","Media"
"lymph","nonNeutro",273322,273328,21,"0804042","Media"
"viable","lymph",273301,273322,21,"0804042","Media"
"cd3","viable",126291,273301,21,"0804042","Media"
"CD4m","cd3",48030,126291,21,"0804042","Media"
"CD4p","cd3",78261,126291,21,"0804042","Media"
"CD8m","cd3",86377,126291,21,"0804042","Media"
"CD4","cd3",76789,126291,21,"0804042","Media"
"CD4pIFNg","CD4",39,76789,21,"0804042","Media"
"CD4pIL4","CD4",57,76789,21,"0804042","Media"
"CD4pCD107a","CD4",1357,76789,21,"0804042","Media"
"CD4pIL2","CD4",87,76789,21,"0804042","Media"
"CD8p","cd3",39914,126291,21,"0804042","Media"
"CD8","cd3",38442,126291,21,"0804042","Media"
"CD8pIFNg","CD8",68,38442,21,"0804042","Media"
"CD8pIL4","CD8",37,38442,21,"0804042","Media"
"CD8pCD107a","CD8",1930,38442,21,"0804042","Media"
"CD8pIL2","CD8",26,38442,21,"0804042","Media"
"CD4Any","CD4",1473,76789,21,"0804042","Media"
"CD107a.IFNg.IL2.IL4","CD4",10,76789,21,"0804042","Media"
"CD107a.IFNg.IL2","CD4",2,76789,21,"0804042","Media"
"CD107a.IFNg.IL4","CD4",0,76789,21,"0804042","Media"
"CD107a.IFNg","CD4",1,76789,21,"0804042","Media"
"CD107a.IL2.IL4","CD4",3,76789,21,"0804042","Media"
"CD107a.IL2","CD4",10,76789,21,"0804042","Media"
"CD107a.IL4","CD4",0,76789,21,"0804042","Media"
"CD107a","CD4",1331,76789,21,"0804042","Media"
"IFNg.IL2.IL4","CD4",1,76789,21,"0804042","Media"
"IFNg.IL2","CD4",9,76789,21,"0804042","Media"
"IFNg.IL4","CD4",2,76789,21,"0804042","Media"
"IFNg","CD4",14,76789,21,"0804042","Media"
"IL2.IL4","CD4",3,76789,21,"0804042","Media"
"IL2","CD4",49,76789,21,"0804042","Media"
"IL4","CD4",38,76789,21,"0804042","Media"
"All.Neg","CD4",75316,76789,21,"0804042","Media"
"CD8Any","CD8",2047,38442,21,"0804042","Media"
"CD107a.IFNg.IL2.IL4","CD8",0,38442,21,"0804042","Media"
"CD107a.IFNg.IL2","CD8",1,38442,21,"0804042","Media"
"CD107a.IFNg.IL4","CD8",0,38442,21,"0804042","Media"
"CD107a.IFNg","CD8",6,38442,21,"0804042","Media"
"CD107a.IL2.IL4","CD8",0,38442,21,"0804042","Media"
"CD107a.IL2","CD8",2,38442,21,"0804042","Media"
"CD107a.IL4","CD8",1,38442,21,"0804042","Media"
"CD107a","CD8",1920,38442,21,"0804042","Media"
"IFNg.IL2.IL4","CD8",0,38442,21,"0804042","Media"
"IFNg.IL2","CD8",1,38442,21,"0804042","Media"
"IFNg.IL4","CD8",0,38442,21,"0804042","Media"
"IFNg","CD8",60,38442,21,"0804042","Media"
"IL2.IL4","CD8",2,38442,21,"0804042","Media"
"IL2","CD8",20,38442,21,"0804042","Media"
"IL4","CD8",34,38442,21,"0804042","Media"
"All.Neg","CD8",36395,38442,21,"0804042","Media"
"boundary","root",85359,100308,21,"0807115","Media"
"singlet","boundary",85214,85359,21,"0807115","Media"
"nonNeutro","singlet",80468,85214,21,"0807115","Media"
"lymph","nonNeutro",79403,80468,21,"0807115","Media"
"viable","lymph",79383,79403,21,"0807115","Media"
"cd3","viable",16022,79383,21,"0807115","Media"
"CD4m","cd3",7105,16022,21,"0807115","Media"
"CD4p","cd3",8917,16022,21,"0807115","Media"
"CD8m","cd3",10583,16022,21,"0807115","Media"
"CD4","cd3",8740,16022,21,"0807115","Media"
"CD4pIFNg","CD4",20,8740,21,"0807115","Media"
"CD4pIL4","CD4",21,8740,21,"0807115","Media"
"CD4pCD107a","CD4",44,8740,21,"0807115","Media"
"CD4pIL2","CD4",20,8740,21,"0807115","Media"
"CD8p","cd3",5439,16022,21,"0807115","Media"
"CD8","cd3",5262,16022,21,"0807115","Media"
"CD8pIFNg","CD8",5,5262,21,"0807115","Media"
"CD8pIL4","CD8",8,5262,21,"0807115","Media"
"CD8pCD107a","CD8",51,5262,21,"0807115","Media"
"CD8pIL2","CD8",5,5262,21,"0807115","Media"
"CD4Any","CD4",59,8740,21,"0807115","Media"
"CD107a.IFNg.IL2.IL4","CD4",11,8740,21,"0807115","Media"
"CD107a.IFNg.IL2","CD4",0,8740,21,"0807115","Media"
"CD107a.IFNg.IL4","CD4",0,8740,21,"0807115","Media"
"CD107a.IFNg","CD4",1,8740,21,"0807115","Media"
"CD107a.IL2.IL4","CD4",0,8740,21,"0807115","Media"
"CD107a.IL2","CD4",4,8740,21,"0807115","Media"
"CD107a.IL4","CD4",0,8740,21,"0807115","Media"
"CD107a","CD4",28,8740,21,"0807115","Media"
"IFNg.IL2.IL4","CD4",1,8740,21,"0807115","Media"
"IFNg.IL2","CD4",0,8740,21,"0807115","Media"
"IFNg.IL4","CD4",5,8740,21,"0807115","Media"
"IFNg","CD4",2,8740,21,"0807115","Media"
"IL2.IL4","CD4",1,8740,21,"0807115","Media"
"IL2","CD4",3,8740,21,"0807115","Media"
"IL4","CD4",3,8740,21,"0807115","Media"
"All.Neg","CD4",8681,8740,21,"0807115","Media"
"CD8Any","CD8",62,5262,21,"0807115","Media"
"CD107a.IFNg.IL2.IL4","CD8",1,5262,21,"0807115","Media"
"CD107a.IFNg.IL2","CD8",0,5262,21,"0807115","Media"
"CD107a.IFNg.IL4","CD8",0,5262,21,"0807115","Media"
"CD107a.IFNg","CD8",0,5262,21,"0807115","Media"
"CD107a.IL2.IL4","CD8",1,5262,21,"0807115","Media"
"CD107a.IL2","CD8",1,5262,21,"0807115","Media"
"CD107a.IL4","CD8",0,5262,21,"0807115","Media"
"CD107a","CD8",48,5262,21,"0807115","Media"
"IFNg.IL2.IL4","CD8",0,5262,21,"0807115","Media"
"IFNg.IL2","CD8",0,5262,21,"0807115","Media"
"IFNg.IL4","CD8",1,5262,21,"0807115","Media"
"IFNg","CD8",3,5262,21,"0807115","Media"
"IL2.IL4","CD8",0,5262,21,"0807115","Media"
"IL2","CD8",2,5262,21,"0807115","Media"
"IL4","CD8",5,5262,21,"0807115","Media"
"All.Neg","CD8",5200,5262,21,"0807115","Media"
"boundary","root",234219,240760,21,"0901174","Media"
"singlet","boundary",229156,234219,21,"0901174","Media"
"nonNeutro","singlet",217281,229156,21,"0901174","Media"
"lymph","nonNeutro",207499,217281,21,"0901174","Media"
"viable","lymph",207441,207499,21,"0901174","Media"
"cd3","viable",124754,207441,21,"0901174","Media"
"CD4m","cd3",40918,124754,21,"0901174","Media"
"CD4p","cd3",83836,124754,21,"0901174","Media"
"CD8m","cd3",92198,124754,21,"0901174","Media"
"CD4","cd3",81503,124754,21,"0901174","Media"
"CD4pIFNg","CD4",17,81503,21,"0901174","Media"
"CD4pIL4","CD4",248,81503,21,"0901174","Media"
"CD4pCD107a","CD4",1087,81503,21,"0901174","Media"
"CD4pIL2","CD4",100,81503,21,"0901174","Media"
"CD8p","cd3",32556,124754,21,"0901174","Media"
"CD8","cd3",30223,124754,21,"0901174","Media"
"CD8pIFNg","CD8",6,30223,21,"0901174","Media"
"CD8pIL4","CD8",118,30223,21,"0901174","Media"
"CD8pCD107a","CD8",915,30223,21,"0901174","Media"
"CD8pIL2","CD8",20,30223,21,"0901174","Media"
"CD4Any","CD4",1386,81503,21,"0901174","Media"
"CD107a.IFNg.IL2.IL4","CD4",1,81503,21,"0901174","Media"
"CD107a.IFNg.IL2","CD4",0,81503,21,"0901174","Media"
"CD107a.IFNg.IL4","CD4",0,81503,21,"0901174","Media"
"CD107a.IFNg","CD4",0,81503,21,"0901174","Media"
"CD107a.IL2.IL4","CD4",4,81503,21,"0901174","Media"
"CD107a.IL2","CD4",9,81503,21,"0901174","Media"
"CD107a.IL4","CD4",33,81503,21,"0901174","Media"
"CD107a","CD4",1040,81503,21,"0901174","Media"
"IFNg.IL2.IL4","CD4",1,81503,21,"0901174","Media"
"IFNg.IL2","CD4",5,81503,21,"0901174","Media"
"IFNg.IL4","CD4",0,81503,21,"0901174","Media"
"IFNg","CD4",10,81503,21,"0901174","Media"
"IL2.IL4","CD4",6,81503,21,"0901174","Media"
"IL2","CD4",74,81503,21,"0901174","Media"
"IL4","CD4",203,81503,21,"0901174","Media"
"All.Neg","CD4",80117,81503,21,"0901174","Media"
"CD8Any","CD8",1042,30223,21,"0901174","Media"
"CD107a.IFNg.IL2.IL4","CD8",0,30223,21,"0901174","Media"
"CD107a.IFNg.IL2","CD8",0,30223,21,"0901174","Media"
"CD107a.IFNg.IL4","CD8",1,30223,21,"0901174","Media"
"CD107a.IFNg","CD8",1,30223,21,"0901174","Media"
"CD107a.IL2.IL4","CD8",1,30223,21,"0901174","Media"
"CD107a.IL2","CD8",2,30223,21,"0901174","Media"
"CD107a.IL4","CD8",9,30223,21,"0901174","Media"
"CD107a","CD8",901,30223,21,"0901174","Media"
"IFNg.IL2.IL4","CD8",0,30223,21,"0901174","Media"
"IFNg.IL2","CD8",1,30223,21,"0901174","Media"
"IFNg.IL4","CD8",0,30223,21,"0901174","Media"
"IFNg","CD8",3,30223,21,"0901174","Media"
"IL2.IL4","CD8",0,30223,21,"0901174","Media"
"IL2","CD8",16,30223,21,"0901174","Media"
"IL4","CD8",107,30223,21,"0901174","Media"
"All.Neg","CD8",29181,30223,21,"0901174","Media"
"boundary","root",150834,168204,21,"0905147","Media"
"singlet","boundary",149200,150834,21,"0905147","Media"
"nonNeutro","singlet",136076,149200,21,"0905147","Media"
"lymph","nonNeutro",128648,136076,21,"0905147","Media"
"viable","lymph",128497,128648,21,"0905147","Media"
"cd3","viable",59028,128497,21,"0905147","Media"
"CD4m","cd3",24334,59028,21,"0905147","Media"
"CD4p","cd3",34694,59028,21,"0905147","Media"
"CD8m","cd3",41152,59028,21,"0905147","Media"
"CD4","cd3",33894,59028,21,"0905147","Media"
"CD4pIFNg","CD4",20,33894,21,"0905147","Media"
"CD4pIL4","CD4",141,33894,21,"0905147","Media"
"CD4pCD107a","CD4",173,33894,21,"0905147","Media"
"CD4pIL2","CD4",51,33894,21,"0905147","Media"
"CD8p","cd3",17876,59028,21,"0905147","Media"
"CD8","cd3",17076,59028,21,"0905147","Media"
"CD8pIFNg","CD8",5,17076,21,"0905147","Media"
"CD8pIL4","CD8",35,17076,21,"0905147","Media"
"CD8pCD107a","CD8",216,17076,21,"0905147","Media"
"CD8pIL2","CD8",15,17076,21,"0905147","Media"
"CD4Any","CD4",348,33894,21,"0905147","Media"
"CD107a.IFNg.IL2.IL4","CD4",3,33894,21,"0905147","Media"
"CD107a.IFNg.IL2","CD4",0,33894,21,"0905147","Media"
"CD107a.IFNg.IL4","CD4",0,33894,21,"0905147","Media"
"CD107a.IFNg","CD4",2,33894,21,"0905147","Media"
"CD107a.IL2.IL4","CD4",2,33894,21,"0905147","Media"
"CD107a.IL2","CD4",4,33894,21,"0905147","Media"
"CD107a.IL4","CD4",6,33894,21,"0905147","Media"
"CD107a","CD4",156,33894,21,"0905147","Media"
"IFNg.IL2.IL4","CD4",1,33894,21,"0905147","Media"
"IFNg.IL2","CD4",1,33894,21,"0905147","Media"
"IFNg.IL4","CD4",6,33894,21,"0905147","Media"
"IFNg","CD4",7,33894,21,"0905147","Media"
"IL2.IL4","CD4",3,33894,21,"0905147","Media"
"IL2","CD4",37,33894,21,"0905147","Media"
"IL4","CD4",120,33894,21,"0905147","Media"
"All.Neg","CD4",33546,33894,21,"0905147","Media"
"CD8Any","CD8",257,17076,21,"0905147","Media"
"CD107a.IFNg.IL2.IL4","CD8",1,17076,21,"0905147","Media"
"CD107a.IFNg.IL2","CD8",1,17076,21,"0905147","Media"
"CD107a.IFNg.IL4","CD8",0,17076,21,"0905147","Media"
"CD107a.IFNg","CD8",0,17076,21,"0905147","Media"
"CD107a.IL2.IL4","CD8",1,17076,21,"0905147","Media"
"CD107a.IL2","CD8",1,17076,21,"0905147","Media"
"CD107a.IL4","CD8",4,17076,21,"0905147","Media"
"CD107a","CD8",208,17076,21,"0905147","Media"
"IFNg.IL2.IL4","CD8",0,17076,21,"0905147","Media"
"IFNg.IL2","CD8",0,17076,21,"0905147","Media"
"IFNg.IL4","CD8",2,17076,21,"0905147","Media"
"IFNg","CD8",1,17076,21,"0905147","Media"
"IL2.IL4","CD8",0,17076,21,"0905147","Media"
"IL2","CD8",11,17076,21,"0905147","Media"
"IL4","CD8",27,17076,21,"0905147","Media"
"All.Neg","CD8",16819,17076,21,"0905147","Media"
"boundary","root",132569,138580,21,"0906211","Media"
"singlet","boundary",129517,132569,21,"0906211","Media"
"nonNeutro","singlet",121374,129517,21,"0906211","Media"
"lymph","nonNeutro",116599,121374,21,"0906211","Media"
"viable","lymph",116553,116599,21,"0906211","Media"
"cd3","viable",56264,116553,21,"0906211","Media"
"CD4m","cd3",23193,56264,21,"0906211","Media"
"CD4p","cd3",33071,56264,21,"0906211","Media"
"CD8m","cd3",36236,56264,21,"0906211","Media"
"CD4","cd3",32205,56264,21,"0906211","Media"
"CD4pIFNg","CD4",6,32205,21,"0906211","Media"
"CD4pIL4","CD4",35,32205,21,"0906211","Media"
"CD4pCD107a","CD4",375,32205,21,"0906211","Media"
"CD4pIL2","CD4",58,32205,21,"0906211","Media"
"CD8p","cd3",20028,56264,21,"0906211","Media"
"CD8","cd3",19162,56264,21,"0906211","Media"
"CD8pIFNg","CD8",18,19162,21,"0906211","Media"
"CD8pIL4","CD8",44,19162,21,"0906211","Media"
"CD8pCD107a","CD8",191,19162,21,"0906211","Media"
"CD8pIL2","CD8",9,19162,21,"0906211","Media"
"CD4Any","CD4",428,32205,21,"0906211","Media"
"CD107a.IFNg.IL2.IL4","CD4",2,32205,21,"0906211","Media"
"CD107a.IFNg.IL2","CD4",0,32205,21,"0906211","Media"
"CD107a.IFNg.IL4","CD4",0,32205,21,"0906211","Media"
"CD107a.IFNg","CD4",0,32205,21,"0906211","Media"
"CD107a.IL2.IL4","CD4",8,32205,21,"0906211","Media"
"CD107a.IL2","CD4",15,32205,21,"0906211","Media"
"CD107a.IL4","CD4",4,32205,21,"0906211","Media"
"CD107a","CD4",346,32205,21,"0906211","Media"
"IFNg.IL2.IL4","CD4",0,32205,21,"0906211","Media"
"IFNg.IL2","CD4",2,32205,21,"0906211","Media"
"IFNg.IL4","CD4",0,32205,21,"0906211","Media"
"IFNg","CD4",2,32205,21,"0906211","Media"
"IL2.IL4","CD4",3,32205,21,"0906211","Media"
"IL2","CD4",28,32205,21,"0906211","Media"
"IL4","CD4",18,32205,21,"0906211","Media"
"All.Neg","CD4",31777,32205,21,"0906211","Media"
"CD8Any","CD8",253,19162,21,"0906211","Media"
"CD107a.IFNg.IL2.IL4","CD8",0,19162,21,"0906211","Media"
"CD107a.IFNg.IL2","CD8",0,19162,21,"0906211","Media"
"CD107a.IFNg.IL4","CD8",0,19162,21,"0906211","Media"
"CD107a.IFNg","CD8",3,19162,21,"0906211","Media"
"CD107a.IL2.IL4","CD8",0,19162,21,"0906211","Media"
"CD107a.IL2","CD8",0,19162,21,"0906211","Media"
"CD107a.IL4","CD8",1,19162,21,"0906211","Media"
"CD107a","CD8",187,19162,21,"0906211","Media"
"IFNg.IL2.IL4","CD8",0,19162,21,"0906211","Media"
"IFNg.IL2","CD8",1,19162,21,"0906211","Media"
"IFNg.IL4","CD8",4,19162,21,"0906211","Media"
"IFNg","CD8",10,19162,21,"0906211","Media"
"IL2.IL4","CD8",0,19162,21,"0906211","Media"
"IL2","CD8",8,19162,21,"0906211","Media"
"IL4","CD8",39,19162,21,"0906211","Media"
"All.Neg","CD8",18909,19162,21,"0906211","Media"
"boundary","root",105335,109045,21,"1004163","Media"
"singlet","boundary",98838,105335,21,"1004163","Media"
"nonNeutro","singlet",95981,98838,21,"1004163","Media"
"lymph","nonNeutro",95161,95981,21,"1004163","Media"
"viable","lymph",95066,95161,21,"1004163","Media"
"cd3","viable",37736,95066,21,"1004163","Media"
"CD4m","cd3",10834,37736,21,"1004163","Media"
"CD4p","cd3",26902,37736,21,"1004163","Media"
"CD8m","cd3",29809,37736,21,"1004163","Media"
"CD4","cd3",26507,37736,21,"1004163","Media"
"CD4pIFNg","CD4",3,26507,21,"1004163","Media"
"CD4pIL4","CD4",49,26507,21,"1004163","Media"
"CD4pCD107a","CD4",356,26507,21,"1004163","Media"
"CD4pIL2","CD4",30,26507,21,"1004163","Media"
"CD8p","cd3",7927,37736,21,"1004163","Media"
"CD8","cd3",7532,37736,21,"1004163","Media"
"CD8pIFNg","CD8",5,7532,21,"1004163","Media"
"CD8pIL4","CD8",8,7532,21,"1004163","Media"
"CD8pCD107a","CD8",174,7532,21,"1004163","Media"
"CD8pIL2","CD8",12,7532,21,"1004163","Media"
"CD4Any","CD4",414,26507,21,"1004163","Media"
"CD107a.IFNg.IL2.IL4","CD4",0,26507,21,"1004163","Media"
"CD107a.IFNg.IL2","CD4",0,26507,21,"1004163","Media"
"CD107a.IFNg.IL4","CD4",1,26507,21,"1004163","Media"
"CD107a.IFNg","CD4",0,26507,21,"1004163","Media"
"CD107a.IL2.IL4","CD4",4,26507,21,"1004163","Media"
"CD107a.IL2","CD4",5,26507,21,"1004163","Media"
"CD107a.IL4","CD4",4,26507,21,"1004163","Media"
"CD107a","CD4",342,26507,21,"1004163","Media"
"IFNg.IL2.IL4","CD4",1,26507,21,"1004163","Media"
"IFNg.IL2","CD4",1,26507,21,"1004163","Media"
"IFNg.IL4","CD4",0,26507,21,"1004163","Media"
"IFNg","CD4",0,26507,21,"1004163","Media"
"IL2.IL4","CD4",2,26507,21,"1004163","Media"
"IL2","CD4",17,26507,21,"1004163","Media"
"IL4","CD4",37,26507,21,"1004163","Media"
"All.Neg","CD4",26093,26507,21,"1004163","Media"
"CD8Any","CD8",189,7532,21,"1004163","Media"
"CD107a.IFNg.IL2.IL4","CD8",0,7532,21,"1004163","Media"
"CD107a.IFNg.IL2","CD8",1,7532,21,"1004163","Media"
"CD107a.IFNg.IL4","CD8",1,7532,21,"1004163","Media"
"CD107a.IFNg","CD8",1,7532,21,"1004163","Media"
"CD107a.IL2.IL4","CD8",0,7532,21,"1004163","Media"
"CD107a.IL2","CD8",3,7532,21,"1004163","Media"
"CD107a.IL4","CD8",0,7532,21,"1004163","Media"
"CD107a","CD8",168,7532,21,"1004163","Media"
"IFNg.IL2.IL4","CD8",0,7532,21,"1004163","Media"
"IFNg.IL2","CD8",0,7532,21,"1004163","Media"
"IFNg.IL4","CD8",1,7532,21,"1004163","Media"
"IFNg","CD8",1,7532,21,"1004163","Media"
"IL2.IL4","CD8",1,7532,21,"1004163","Media"
"IL2","CD8",7,7532,21,"1004163","Media"
"IL4","CD8",5,7532,21,"1004163","Media"
"All.Neg","CD8",7343,7532,21,"1004163","Media"
"boundary","root",295219,307424,21,"1004217","Media"
"singlet","boundary",282431,295219,21,"1004217","Media"
"nonNeutro","singlet",253767,282431,21,"1004217","Media"
"lymph","nonNeutro",244575,253767,21,"1004217","Media"
"viable","lymph",244387,244575,21,"1004217","Media"
"cd3","viable",106582,244387,21,"1004217","Media"
"CD4m","cd3",37892,106582,21,"1004217","Media"
"CD4p","cd3",68690,106582,21,"1004217","Media"
"CD8m","cd3",86309,106582,21,"1004217","Media"
"CD4","cd3",67825,106582,21,"1004217","Media"
"CD4pIFNg","CD4",15,67825,21,"1004217","Media"
"CD4pIL4","CD4",349,67825,21,"1004217","Media"
"CD4pCD107a","CD4",691,67825,21,"1004217","Media"
"CD4pIL2","CD4",119,67825,21,"1004217","Media"
"CD8p","cd3",20273,106582,21,"1004217","Media"
"CD8","cd3",19408,106582,21,"1004217","Media"
"CD8pIFNg","CD8",7,19408,21,"1004217","Media"
"CD8pIL4","CD8",90,19408,21,"1004217","Media"
"CD8pCD107a","CD8",149,19408,21,"1004217","Media"
"CD8pIL2","CD8",12,19408,21,"1004217","Media"
"CD4Any","CD4",1092,67825,21,"1004217","Media"
"CD107a.IFNg.IL2.IL4","CD4",4,67825,21,"1004217","Media"
"CD107a.IFNg.IL2","CD4",0,67825,21,"1004217","Media"
"CD107a.IFNg.IL4","CD4",0,67825,21,"1004217","Media"
"CD107a.IFNg","CD4",0,67825,21,"1004217","Media"
"CD107a.IL2.IL4","CD4",12,67825,21,"1004217","Media"
"CD107a.IL2","CD4",22,67825,21,"1004217","Media"
"CD107a.IL4","CD4",15,67825,21,"1004217","Media"
"CD107a","CD4",638,67825,21,"1004217","Media"
"IFNg.IL2.IL4","CD4",0,67825,21,"1004217","Media"
"IFNg.IL2","CD4",3,67825,21,"1004217","Media"
"IFNg.IL4","CD4",1,67825,21,"1004217","Media"
"IFNg","CD4",7,67825,21,"1004217","Media"
"IL2.IL4","CD4",5,67825,21,"1004217","Media"
"IL2","CD4",73,67825,21,"1004217","Media"
"IL4","CD4",312,67825,21,"1004217","Media"
"All.Neg","CD4",66733,67825,21,"1004217","Media"
"CD8Any","CD8",240,19408,21,"1004217","Media"
"CD107a.IFNg.IL2.IL4","CD8",0,19408,21,"1004217","Media"
"CD107a.IFNg.IL2","CD8",0,19408,21,"1004217","Media"
"CD107a.IFNg.IL4","CD8",0,19408,21,"1004217","Media"
"CD107a.IFNg","CD8",1,19408,21,"1004217","Media"
"CD107a.IL2.IL4","CD8",2,19408,21,"1004217","Media"
"CD107a.IL2","CD8",2,19408,21,"1004217","Media"
"CD107a.IL4","CD8",9,19408,21,"1004217","Media"
"CD107a","CD8",135,19408,21,"1004217","Media"
"IFNg.IL2.IL4","CD8",0,19408,21,"1004217","Media"
"IFNg.IL2","CD8",0,19408,21,"1004217","Media"
"IFNg.IL4","CD8",1,19408,21,"1004217","Media"
"IFNg","CD8",5,19408,21,"1004217","Media"
"IL2.IL4","CD8",1,19408,21,"1004217","Media"
"IL2","CD8",7,19408,21,"1004217","Media"
"IL4","CD8",77,19408,21,"1004217","Media"
"All.Neg","CD8",19168,19408,21,"1004217","Media"
"boundary","root",93656,97006,21,"1005135","Media"
"singlet","boundary",91978,93656,21,"1005135","Media"
"nonNeutro","singlet",86178,91978,21,"1005135","Media"
"lymph","nonNeutro",83876,86178,21,"1005135","Media"
"viable","lymph",83800,83876,21,"1005135","Media"
"cd3","viable",31100,83800,21,"1005135","Media"
"CD4m","cd3",14365,31100,21,"1005135","Media"
"CD4p","cd3",16735,31100,21,"1005135","Media"
"CD8m","cd3",19710,31100,21,"1005135","Media"
"CD4","cd3",15967,31100,21,"1005135","Media"
"CD4pIFNg","CD4",3,15967,21,"1005135","Media"
"CD4pIL4","CD4",27,15967,21,"1005135","Media"
"CD4pCD107a","CD4",210,15967,21,"1005135","Media"
"CD4pIL2","CD4",14,15967,21,"1005135","Media"
"CD8p","cd3",11390,31100,21,"1005135","Media"
"CD8","cd3",10622,31100,21,"1005135","Media"
"CD8pIFNg","CD8",2,10622,21,"1005135","Media"
"CD8pIL4","CD8",34,10622,21,"1005135","Media"
"CD8pCD107a","CD8",297,10622,21,"1005135","Media"
"CD8pIL2","CD8",9,10622,21,"1005135","Media"
"CD4Any","CD4",237,15967,21,"1005135","Media"
"CD107a.IFNg.IL2.IL4","CD4",0,15967,21,"1005135","Media"
"CD107a.IFNg.IL2","CD4",0,15967,21,"1005135","Media"
"CD107a.IFNg.IL4","CD4",0,15967,21,"1005135","Media"
"CD107a.IFNg","CD4",1,15967,21,"1005135","Media"
"CD107a.IL2.IL4","CD4",1,15967,21,"1005135","Media"
"CD107a.IL2","CD4",6,15967,21,"1005135","Media"
"CD107a.IL4","CD4",5,15967,21,"1005135","Media"
"CD107a","CD4",197,15967,21,"1005135","Media"
"IFNg.IL2.IL4","CD4",0,15967,21,"1005135","Media"
"IFNg.IL2","CD4",1,15967,21,"1005135","Media"
"IFNg.IL4","CD4",0,15967,21,"1005135","Media"
"IFNg","CD4",1,15967,21,"1005135","Media"
"IL2.IL4","CD4",2,15967,21,"1005135","Media"
"IL2","CD4",4,15967,21,"1005135","Media"
"IL4","CD4",19,15967,21,"1005135","Media"
"All.Neg","CD4",15730,15967,21,"1005135","Media"
"CD8Any","CD8",334,10622,21,"1005135","Media"
"CD107a.IFNg.IL2.IL4","CD8",0,10622,21,"1005135","Media"
"CD107a.IFNg.IL2","CD8",0,10622,21,"1005135","Media"
"CD107a.IFNg.IL4","CD8",0,10622,21,"1005135","Media"
"CD107a.IFNg","CD8",1,10622,21,"1005135","Media"
"CD107a.IL2.IL4","CD8",2,10622,21,"1005135","Media"
"CD107a.IL2","CD8",0,10622,21,"1005135","Media"
"CD107a.IL4","CD8",2,10622,21,"1005135","Media"
"CD107a","CD8",292,10622,21,"1005135","Media"
"IFNg.IL2.IL4","CD8",0,10622,21,"1005135","Media"
"IFNg.IL2","CD8",0,10622,21,"1005135","Media"
"IFNg.IL4","CD8",1,10622,21,"1005135","Media"
"IFNg","CD8",0,10622,21,"1005135","Media"
"IL2.IL4","CD8",0,10622,21,"1005135","Media"
"IL2","CD8",7,10622,21,"1005135","Media"
"IL4","CD8",29,10622,21,"1005135","Media"
"All.Neg","CD8",10288,10622,21,"1005135","Media"
"boundary","root",307750,317420,21,"1005211","Media"
"singlet","boundary",305724,307750,21,"1005211","Media"
"nonNeutro","singlet",289813,305724,21,"1005211","Media"
"lymph","nonNeutro",267004,289813,21,"1005211","Media"
"viable","lymph",266980,267004,21,"1005211","Media"
"cd3","viable",156496,266980,21,"1005211","Media"
"CD4m","cd3",55203,156496,21,"1005211","Media"
"CD4p","cd3",101293,156496,21,"1005211","Media"
"CD8m","cd3",107940,156496,21,"1005211","Media"
"CD4","cd3",98489,156496,21,"1005211","Media"
"CD4pIFNg","CD4",52,98489,21,"1005211","Media"
"CD4pIL4","CD4",558,98489,21,"1005211","Media"
"CD4pCD107a","CD4",579,98489,21,"1005211","Media"
"CD4pIL2","CD4",187,98489,21,"1005211","Media"
"CD8p","cd3",48556,156496,21,"1005211","Media"
"CD8","cd3",45752,156496,21,"1005211","Media"
"CD8pIFNg","CD8",39,45752,21,"1005211","Media"
"CD8pIL4","CD8",500,45752,21,"1005211","Media"
"CD8pCD107a","CD8",220,45752,21,"1005211","Media"
"CD8pIL2","CD8",52,45752,21,"1005211","Media"
"CD4Any","CD4",1261,98489,21,"1005211","Media"
"CD107a.IFNg.IL2.IL4","CD4",4,98489,21,"1005211","Media"
"CD107a.IFNg.IL2","CD4",0,98489,21,"1005211","Media"
"CD107a.IFNg.IL4","CD4",5,98489,21,"1005211","Media"
"CD107a.IFNg","CD4",5,98489,21,"1005211","Media"
"CD107a.IL2.IL4","CD4",7,98489,21,"1005211","Media"
"CD107a.IL2","CD4",30,98489,21,"1005211","Media"
"CD107a.IL4","CD4",13,98489,21,"1005211","Media"
"CD107a","CD4",515,98489,21,"1005211","Media"
"IFNg.IL2.IL4","CD4",1,98489,21,"1005211","Media"
"IFNg.IL2","CD4",6,98489,21,"1005211","Media"
"IFNg.IL4","CD4",6,98489,21,"1005211","Media"
"IFNg","CD4",25,98489,21,"1005211","Media"
"IL2.IL4","CD4",17,98489,21,"1005211","Media"
"IL2","CD4",122,98489,21,"1005211","Media"
"IL4","CD4",505,98489,21,"1005211","Media"
"All.Neg","CD4",97228,98489,21,"1005211","Media"
"CD8Any","CD8",766,45752,21,"1005211","Media"
"CD107a.IFNg.IL2.IL4","CD8",4,45752,21,"1005211","Media"
"CD107a.IFNg.IL2","CD8",0,45752,21,"1005211","Media"
"CD107a.IFNg.IL4","CD8",3,45752,21,"1005211","Media"
"CD107a.IFNg","CD8",4,45752,21,"1005211","Media"
"CD107a.IL2.IL4","CD8",1,45752,21,"1005211","Media"
"CD107a.IL2","CD8",13,45752,21,"1005211","Media"
"CD107a.IL4","CD8",5,45752,21,"1005211","Media"
"CD107a","CD8",190,45752,21,"1005211","Media"
"IFNg.IL2.IL4","CD8",0,45752,21,"1005211","Media"
"IFNg.IL2","CD8",0,45752,21,"1005211","Media"
"IFNg.IL4","CD8",2,45752,21,"1005211","Media"
"IFNg","CD8",26,45752,21,"1005211","Media"
"IL2.IL4","CD8",1,45752,21,"1005211","Media"
"IL2","CD8",33,45752,21,"1005211","Media"
"IL4","CD8",484,45752,21,"1005211","Media"
"All.Neg","CD8",44986,45752,21,"1005211","Media"
"boundary","root",167597,174538,21,"1008141","Media"
"singlet","boundary",164127,167597,21,"1008141","Media"
"nonNeutro","singlet",153545,164127,21,"1008141","Media"
"lymph","nonNeutro",149773,153545,21,"1008141","Media"
"viable","lymph",149705,149773,21,"1008141","Media"
"cd3","viable",67828,149705,21,"1008141","Media"
"CD4m","cd3",29333,67828,21,"1008141","Media"
"CD4p","cd3",38495,67828,21,"1008141","Media"
"CD8m","cd3",44138,67828,21,"1008141","Media"
"CD4","cd3",37614,67828,21,"1008141","Media"
"CD4pIFNg","CD4",23,37614,21,"1008141","Media"
"CD4pIL4","CD4",132,37614,21,"1008141","Media"
"CD4pCD107a","CD4",689,37614,21,"1008141","Media"
"CD4pIL2","CD4",82,37614,21,"1008141","Media"
"CD8p","cd3",23690,67828,21,"1008141","Media"
"CD8","cd3",22809,67828,21,"1008141","Media"
"CD8pIFNg","CD8",16,22809,21,"1008141","Media"
"CD8pIL4","CD8",121,22809,21,"1008141","Media"
"CD8pCD107a","CD8",327,22809,21,"1008141","Media"
"CD8pIL2","CD8",60,22809,21,"1008141","Media"
"CD4Any","CD4",839,37614,21,"1008141","Media"
"CD107a.IFNg.IL2.IL4","CD4",8,37614,21,"1008141","Media"
"CD107a.IFNg.IL2","CD4",3,37614,21,"1008141","Media"
"CD107a.IFNg.IL4","CD4",3,37614,21,"1008141","Media"
"CD107a.IFNg","CD4",1,37614,21,"1008141","Media"
"CD107a.IL2.IL4","CD4",8,37614,21,"1008141","Media"
"CD107a.IL2","CD4",19,37614,21,"1008141","Media"
"CD107a.IL4","CD4",5,37614,21,"1008141","Media"
"CD107a","CD4",642,37614,21,"1008141","Media"
"IFNg.IL2.IL4","CD4",0,37614,21,"1008141","Media"
"IFNg.IL2","CD4",2,37614,21,"1008141","Media"
"IFNg.IL4","CD4",3,37614,21,"1008141","Media"
"IFNg","CD4",3,37614,21,"1008141","Media"
"IL2.IL4","CD4",5,37614,21,"1008141","Media"
"IL2","CD4",37,37614,21,"1008141","Media"
"IL4","CD4",100,37614,21,"1008141","Media"
"All.Neg","CD4",36775,37614,21,"1008141","Media"
"CD8Any","CD8",485,22809,21,"1008141","Media"
"CD107a.IFNg.IL2.IL4","CD8",0,22809,21,"1008141","Media"
"CD107a.IFNg.IL2","CD8",0,22809,21,"1008141","Media"
"CD107a.IFNg.IL4","CD8",1,22809,21,"1008141","Media"
"CD107a.IFNg","CD8",0,22809,21,"1008141","Media"
"CD107a.IL2.IL4","CD8",3,22809,21,"1008141","Media"
"CD107a.IL2","CD8",6,22809,21,"1008141","Media"
"CD107a.IL4","CD8",3,22809,21,"1008141","Media"
"CD107a","CD8",314,22809,21,"1008141","Media"
"IFNg.IL2.IL4","CD8",4,22809,21,"1008141","Media"
"IFNg.IL2","CD8",4,22809,21,"1008141","Media"
"IFNg.IL4","CD8",5,22809,21,"1008141","Media"
"IFNg","CD8",2,22809,21,"1008141","Media"
"IL2.IL4","CD8",5,22809,21,"1008141","Media"
"IL2","CD8",38,22809,21,"1008141","Media"
"IL4","CD8",100,22809,21,"1008141","Media"
"All.Neg","CD8",22324,22809,21,"1008141","Media"
