Group,Stim,Experiment,GroupID,Prop,Population,Pop_ID,Low,Top,Logit_Prop,Logit_low,Logit_top,Negative,Prob
"ZMapp, 96h",Media,Rhesus,21,0.9974998272603458,All.Neg,1,0.9973129545004422,0.997693478045326,5.988892150242594,5.916622354187378,6.069705350327912,21,0
"ZMapp, 72h",Media,Rhesus,17,0.9971492808356421,All.Neg,1,0.9969461100440247,0.9973398472636381,5.857329187959369,5.788280542993433,5.926708040922079,17,0
"ZMapp, 120h",Media,Rhesus,25,0.998319219037529,All.Neg,1,0.9981900516091181,0.9984688677122472,6.386814539907008,6.31264535910927,6.480215454261746,25,0
"ZMapp1, 72h",Media,Rhesus,9,0.9822538436967743,All.Neg,1,0.9816547397548717,0.982858485252534,4.013680825411445,3.97986841382041,4.048961863417601,9,0
"ZMapp2, 72h",Media,Rhesus,13,0.9854245929415637,All.Neg,1,0.9849938394779292,0.9858366214493577,4.213736946732632,4.184174568556569,4.242830984531177,13,0
"ZMapp, 96h",Media,Rhesus,21,0.0014894853006620975,CD107a,2,0.0013378866002733845,0.0016341931537791237,-6.507834058812076,-6.615325291657159,-6.414970550459381,21,0
"ZMapp, 72h",Media,Rhesus,17,0.0015428145821510461,CD107a,2,0.0014027857231194711,0.0016844621626130396,-6.4726028739845125,-6.567891446618895,-6.38462307499359,17,0
"ZMapp, 120h",Media,Rhesus,25,6.579885884798395e-4,CD107a,2,5.716594980580199e-4,7.447282010584993e-4,-7.325664764367174,-7.466395203993519,-7.201746231296758,25,0
"ZMapp1, 72h",Media,Rhesus,9,0.014787009957400048,CD107a,2,0.014229105893551192,0.015328958612810872,-4.199108761562858,-4.238134391055153,-4.162563858004685,9,0
"ZMapp2, 72h",Media,Rhesus,13,0.008555643485429127,CD107a,2,0.008228469593441836,0.008884934791817217,-4.752571703892933,-4.791892725895855,-4.714473515341453,13,0
"ZMapp, 96h",Media,Rhesus,21,2.6344899015646775e-6,CD107a.IFNg,3,8.395620581683119e-11,1.1728351916429945e-5,-12.84681834596167,-23.200725812279746,-11.353489678332593,21,0
"ZMapp, 72h",Media,Rhesus,17,1.2846892851039866e-5,CD107a.IFNg,3,2.5878208616053696e-6,2.7349945339801684e-5,-11.26239573036186,-12.86469181475133,-10.506768677323652,17,0
"ZMapp, 120h",Media,Rhesus,25,2.0188885075424647e-6,CD107a.IFNg,3,1.1287027933672077e-9,9.12151888150162e-6,-13.112961422891145,-20.602196832987772,-11.604865102160167,25,0
"ZMapp1, 72h",Media,Rhesus,9,2.030563141486882e-5,CD107a.IFNg,3,4.181729526419917e-6,4.4156264011001126e-5,-10.804591994950435,-12.38478145296394,-10.027731603535546,9,0
"ZMapp2, 72h",Media,Rhesus,13,2.9281296318265938e-5,CD107a.IFNg,3,1.23151119395464e-5,5.097231127742652e-5,-10.438532314961346,-11.304671121554172,-9.884177015190756,13,0
"ZMapp, 96h",Media,Rhesus,21,2.590610382819747e-6,CD107a.IFNg.IL2,4,7.528622031180425e-10,1.1342807248597956e-5,-12.863614450362302,-21.007138901309016,-11.38691539464281,21,0
"ZMapp, 72h",Media,Rhesus,17,2.3483158601923844e-6,CD107a.IFNg.IL2,4,3.3577421192069645e-9,1.0839550150368975e-5,-12.961809793646992,-19.511997073830177,-11.432298222248436,17,0
"ZMapp, 120h",Media,Rhesus,25,2.0766685674547487e-6,CD107a.IFNg.IL2,4,4.155271636897203e-9,8.893982413609919e-6,-13.084743521855454,-19.298888030712767,-11.630126749187678,25,0
"ZMapp1, 72h",Media,Rhesus,9,3.1548669201920044e-5,CD107a.IFNg.IL2,4,9.29953157668402e-6,5.912956507221179e-5,-10.36394760130456,-11.585537227597253,-9.735720372295795,9,0
"ZMapp2, 72h",Media,Rhesus,13,2.3376142799448022e-6,CD107a.IFNg.IL2,4,1.4504958755912857e-9,9.864068264319013e-6,-12.966377349545667,-20.351360354359944,-11.526602007457862,13,0
"ZMapp, 96h",Media,Rhesus,21,1.732759279558608e-5,CD107a.IFNg.IL2.IL4,5,5.015245725389201e-6,3.5589163489867106e-5,-10.963193040031891,-12.203023124408851,-10.243433772999511,21,0
"ZMapp, 72h",Media,Rhesus,17,5.8202841052300205e-6,CD107a.IFNg.IL2.IL4,5,1.878754522368972e-7,1.6731634990105967e-5,-12.054155661779696,-15.487486393884813,-10.998192587925843,17,0
"ZMapp, 120h",Media,Rhesus,25,8.149911282714981e-6,CD107a.IFNg.IL2.IL4,5,5.746299514672525e-7,1.9911965585139002e-5,-11.717495366382702,-14.369538991359937,-10.824169809084426,25,0
"ZMapp1, 72h",Media,Rhesus,9,1.7396007764461965e-4,CD107a.IFNg.IL2.IL4,5,1.1387468950070783e-4,2.3565889010096415e-4,-8.65651074868843,-9.080298047881922,-8.352889492775395,9,0
"ZMapp2, 72h",Media,Rhesus,13,4.2388516307361077e-5,CD107a.IFNg.IL2.IL4,5,2.172457302073193e-5,6.807767923878558e-5,-10.068590684803425,-10.737044816018269,-9.594793083020553,13,0
"ZMapp, 96h",Media,Rhesus,21,2.5410960646776355e-6,CD107a.IFNg.IL4,6,2.0913602988582515e-9,1.1245961915990801e-5,-12.882912507386546,-19.985451119898567,-11.395490188524178,21,0
"ZMapp, 72h",Media,Rhesus,17,2.428666626780314e-6,CD107a.IFNg.IL4,6,2.5364077915017928e-11,9.96309326894452e-6,-12.928165735799585,-24.39768719819589,-11.516613002270352,17,0
"ZMapp, 120h",Media,Rhesus,25,2.095568325683288e-6,CD107a.IFNg.IL4,6,8.727163813934162e-10,9.150868826257923e-6,-13.075683668632857,-20.859410490129523,-11.601652578584574,25,0
"ZMapp1, 72h",Media,Rhesus,9,2.600795763522015e-5,CD107a.IFNg.IL4,6,7.010069254640406e-6,5.2308884531780586e-5,-10.557081995581553,-11.868155967466132,-9.85829201474338,9,0
"ZMapp2, 72h",Media,Rhesus,13,1.901594137695133e-5,CD107a.IFNg.IL4,6,6.194103162129563e-6,3.641715066687514e-5,-10.8702138946165,-11.991906627258551,-10.220434304307643,13,0
"ZMapp, 96h",Media,Rhesus,21,1.1555240784456211e-4,CD107a.IL2,7,7.935743557956175e-5,1.5891904989306604e-4,-9.065670824258222,-9.441469048690813,-8.746956673880254,21,0
"ZMapp, 72h",Media,Rhesus,17,8.270360377579741e-5,CD107a.IL2,7,5.110261163954106e-5,1.1821974089585674e-4,-9.400164673369249,-9.881623849737291,-9.042847227552635,17,0
"ZMapp, 120h",Media,Rhesus,25,8.93715749528977e-5,CD107a.IL2,7,6.16878502910704e-5,1.2381443028615613e-4,-9.322618504320927,-9.6933618725563,-8.996602821133077,25,0
"ZMapp1, 72h",Media,Rhesus,9,2.9519682571190105e-4,CD107a.IL2,7,2.2418749463985242e-4,3.7611830113563145e-4,-8.127572977899364,-8.402803613952578,-7.885230644328997,9,0
"ZMapp2, 72h",Media,Rhesus,13,2.4129224577194885e-4,CD107a.IL2,7,1.9154338399432545e-4,2.996485534223762e-4,-8.329260399705989,-8.560204664997748,-8.112600565172276,13,0
"ZMapp, 96h",Media,Rhesus,21,4.379945880825481e-5,CD107a.IL2.IL4,8,2.2062469423088918e-5,7.190508937706876e-5,-10.035845296216094,-10.721610546481232,-9.5400916039638,21,0
"ZMapp, 72h",Media,Rhesus,17,1.631072933434363e-5,CD107a.IL2.IL4,8,4.568649276040604e-6,3.389119282834785e-5,-11.023671114464257,-12.296288391315496,-10.292321484138027,17,0
"ZMapp, 120h",Media,Rhesus,25,1.4256016025264254e-5,CD107a.IL2.IL4,8,3.7338306038652415e-6,2.8412942384074803e-5,-11.158317307012169,-12.498072145899851,-10.468637385509759,25,0
"ZMapp1, 72h",Media,Rhesus,9,1.3007529619654483e-4,CD107a.IL2.IL4,8,8.542371310718119e-5,1.860496910186811e-4,-8.947266989912542,-9.367801397307023,-8.589310696916062,9,0
"ZMapp2, 72h",Media,Rhesus,13,8.983415742310115e-5,CD107a.IL2.IL4,8,5.6820127742129356e-5,1.258394709746936e-4,-9.31745544459164,-9.775563111609157,-8.980377655785558,13,0
"ZMapp, 96h",Media,Rhesus,21,6.184440351458001e-6,CD107a.IL4,9,1.0134367843183041e-7,1.7704979533897142e-5,-11.993467856563075,-16.104748238287623,-10.941646923215265,21,0
"ZMapp, 72h",Media,Rhesus,17,1.2831492749865299e-5,CD107a.IL4,9,2.0828334405666993e-6,2.738924972252787e-5,-11.263595206137921,-13.081779277368701,-10.505332577826366,17,0
"ZMapp, 120h",Media,Rhesus,25,4.966298290183565e-6,CD107a.IL4,9,1.8181082947372089e-7,1.454584331391095e-5,-12.21283083988276,-15.520298907104022,-11.138190742105516,25,0
"ZMapp1, 72h",Media,Rhesus,9,7.511205303032199e-5,CD107a.IL4,9,3.689020039480541e-5,1.1743594972604817e-4,-9.496454404117554,-10.207527723263906,-9.049500038874447,9,0
"ZMapp2, 72h",Media,Rhesus,13,2.4431018543679214e-4,CD107a.IL4,9,1.84557894883858e-4,2.9721582660415603e-4,-8.316827548203303,-8.597362775370314,-8.120754734165246,13,0
"ZMapp, 96h",Media,Rhesus,21,3.654111212357604e-5,IFNg,10,1.53293270855959e-5,5.980350783813586e-5,-10.217036029913022,-11.085727431863852,-9.72438643393135,21,0
"ZMapp, 72h",Media,Rhesus,17,3.703594978412892e-5,IFNg,10,1.6940589333534996e-5,6.030942797901712e-5,-10.203584464610245,-10.985781139147802,-9.715961803978567,17,0
"ZMapp, 120h",Media,Rhesus,25,1.7164555320192168e-5,IFNg,10,5.393034560022028e-6,3.348598225554858e-5,-10.972646872880848,-12.130396940269465,-10.30435016029371,25,0
"ZMapp1, 72h",Media,Rhesus,9,1.1952811039731661e-4,IFNg,10,7.273717562621044e-5,1.7233238685364566e-4,-9.03183944555096,-9.528585207682815,-8.66591311704644,9,0
"ZMapp2, 72h",Media,Rhesus,13,1.6947811657963232e-4,IFNg,10,1.266566414399734e-4,2.1970752262555075e-4,-8.682617252723896,-8.97390407890766,-8.422993607054023,13,0
"ZMapp, 96h",Media,Rhesus,21,9.8765072562525e-6,IFNg.IL2,11,1.2455931727274838e-6,2.4224175742560553e-5,-11.525341748723816,-13.595897451959221,-10.628135201372057,21,0
"ZMapp, 72h",Media,Rhesus,17,5.893680048700852e-6,IFNg.IL2,11,2.6381011299976804e-7,1.66561317078377e-5,-12.04162406566286,-15.148035997728229,-11.00271548232142,17,0
"ZMapp, 120h",Media,Rhesus,25,2.0403596990482017e-6,IFNg.IL2,11,9.848244840844638e-10,9.221091517382182e-6,-13.102382402226608,-20.738557678395875,-11.594007920435581,25,0
"ZMapp1, 72h",Media,Rhesus,9,8.049495775256811e-5,IFNg.IL2,11,4.5484098393926165e-5,1.2636964213572253e-4,-9.427235513917926,-9.998102293806731,-8.976172900447093,9,0
"ZMapp2, 72h",Media,Rhesus,13,5.598642873636721e-5,IFNg.IL2,11,3.1399070072928365e-5,8.520721700386397e-5,-9.790345252596584,-10.368700881437416,-9.37033921025094,13,0
"ZMapp, 96h",Media,Rhesus,21,2.1254493439255646e-5,IFNg.IL2.IL4,12,7.147589022903334e-6,4.119364305216671e-5,-10.75892097426322,-11.848728310102297,-10.097185413872257,21,0
"ZMapp, 72h",Media,Rhesus,17,9.358075668250782e-6,IFNg.IL2.IL4,12,1.1423555146065038e-6,2.271648349692174e-5,-11.579261521490892,-13.682417044058544,-10.692397035012448,17,0
"ZMapp, 120h",Media,Rhesus,25,1.0954922230651611e-5,IFNg.IL2.IL4,12,2.421864516492845e-6,2.4061686070827267e-5,-11.421710728941859,-12.93097043122054,-10.63486571014077,25,0
"ZMapp1, 72h",Media,Rhesus,9,1.9818618238745434e-5,IFNg.IL2.IL4,12,4.583186246837227e-6,4.3299791938943886e-5,-10.82886892818029,-12.29311153143715,-10.047319427343195,9,0
"ZMapp2, 72h",Media,Rhesus,13,1.222677289464125e-5,IFNg.IL2.IL4,12,2.503982908883046e-6,2.633766866788009e-5,-11.311870284213834,-12.897625426289611,-10.544484036742897,13,0
"ZMapp, 96h",Media,Rhesus,21,2.592869932586925e-6,IFNg.IL4,13,7.158356844940144e-10,1.1231414821147365e-5,-12.862742620769446,-21.057570465519287,-11.396784579816961,21,0
"ZMapp, 72h",Media,Rhesus,17,2.3626998567590844e-6,IFNg.IL4,13,4.6160397798372356e-10,1.0385519413638758e-5,-12.955703223000278,-21.496313782494497,-11.47508770055638,17,0
"ZMapp, 120h",Media,Rhesus,25,2.061556202748223e-6,IFNg.IL4,13,5.480910713525803e-10,8.813049034689995e-6,-13.092047360576997,-21.324579653640637,-11.6392682768699,25,0
"ZMapp1, 72h",Media,Rhesus,9,5.87447150461898e-5,IFNg.IL4,13,2.7490561166363607e-5,9.729039723665137e-5,-9.742250619206363,-10.501640351583767,-9.237712970838764,9,0
"ZMapp2, 72h",Media,Rhesus,13,4.5693195347667734e-5,IFNg.IL4,13,2.2324162552123412e-5,7.090301370418391e-5,-9.99351547521174,-10.709818619156557,-9.554126713396144,13,0
"ZMapp, 96h",Media,Rhesus,21,6.054313903044231e-4,IL2,14,5.176949585420445e-4,6.995901547227428e-4,-7.408963697463588,-7.5656065432791815,-7.264316052660093,21,0
"ZMapp, 72h",Media,Rhesus,17,9.345847107425884e-4,IL2,14,8.276985205237549e-4,0.0010491013765093196,-6.974473265269961,-7.096033534277133,-6.858771661073247,17,0
"ZMapp, 120h",Media,Rhesus,25,7.38784661467681e-4,IL2,14,6.503498313123347e-4,8.384542208045427e-4,-7.209765013570904,-7.337349576433879,-7.083111768807333,25,0
"ZMapp1, 72h",Media,Rhesus,9,7.411962953184298e-4,IL2,14,6.123856615705274e-4,8.583068524831223e-4,-7.206503590669684,-7.3975357347119735,-7.059690210077724,9,0
"ZMapp2, 72h",Media,Rhesus,13,0.0010433507351395109,IL2,14,9.320116299563424e-4,0.0011663596342493987,-6.86427398878542,-6.977232818639762,-6.752700764072708,13,0
"ZMapp, 96h",Media,Rhesus,21,6.246781950321622e-6,IL2.IL4,15,1.2781044035213453e-7,1.7811590744966256e-5,-11.98343786796336,-15.87271747763301,-10.93564333538555,21,0
"ZMapp, 72h",Media,Rhesus,17,1.2980502797333382e-5,IL2.IL4,15,2.7544589838636175e-6,2.7421728684585447e-5,-11.252049130539238,-12.80228675627399,-10.50414741905237,17,0
"ZMapp, 120h",Media,Rhesus,25,3.514829225755995e-5,IL2.IL4,15,1.7807247010696345e-5,5.7431548241241894e-5,-10.25589937640008,-10.935887240685435,-9.76485935149996,25,0
"ZMapp1, 72h",Media,Rhesus,9,8.042777588334444e-5,IL2.IL4,15,4.3908754749760385e-5,1.2368589176726754e-4,-9.428070539244537,-10.03335292322317,-8.997641643531447,9,0
"ZMapp2, 72h",Media,Rhesus,13,1.1322220259170061e-4,IL2.IL4,15,7.804166738676065e-5,1.5380366272514193e-4,-9.08604504684554,-9.45818963192829,-8.779679870826698,13,0
"ZMapp, 96h",Media,Rhesus,21,1.18522149426944e-4,IL4,16,8.201502573492602e-5,1.624096908502739e-4,-9.04029217068648,-9.40852606842756,-8.725226036412948,21,0
"ZMapp, 72h",Media,Rhesus,17,1.524153896456829e-4,IL4,16,1.0966451994923957e-4,2.014334482073414e-4,-8.788748510876955,-9.117975000456008,-8.509850059243373,17,0
"ZMapp, 120h",Media,Rhesus,25,8.039057254514862e-5,IL4,16,5.0421983138721e-5,1.1203709844853361e-4,-9.428533251751578,-9.895032881341221,-9.096568461993067,25,0
"ZMapp1, 72h",Media,Rhesus,9,0.0010820886833708748,IL4,16,9.326997289842839e-4,0.0012333684214959975,-6.827779464902591,-6.976494107838627,-6.696772168896833,9,0
"ZMapp2, 72h",Media,Rhesus,13,0.003898109883351794,IL4,16,0.0036836344486898126,0.00412832890772452,-5.543357761303584,-5.600164956514872,-5.485745702734552,13,0
"ZMAb + DEF201, 96h",Media,Cyno,5,0.9980906123337248,All.Neg,1,0.9978786286656564,0.9982967060016819,6.259061469027253,6.153568918966998,6.373486510412335,5,0
"ZMAb + DEF201, 72h",Media,Cyno,1,0.9980892219105726,All.Neg,1,0.9979128661173455,0.998252299279579,6.258332137260695,6.169874187193918,6.347704999250071,1,0
"ZMAb + DEF201, R, 72h",Media,Rhesus,29,0.9979470510149508,All.Neg,1,0.9977663974328113,0.9981495301534851,6.186422931058217,6.1019033952685175,6.29046351696702,29,0
"ZMAb + DEF201, 96h",Media,Cyno,5,1.1928327522493226e-4,CD107a,2,7.290666105462176e-5,1.7700685946282413e-4,-9.033890139203875,-9.526257641313617,-8.639145049587082,5,0
"ZMAb + DEF201, 72h",Media,Cyno,1,8.266558144253284e-5,CD107a,2,5.1183929961689105e-5,1.1861242886857021e-4,-9.400624559266436,-9.880033757881518,-9.039530660896597,1,0
"ZMAb + DEF201, R, 72h",Media,Rhesus,29,2.686555167728806e-4,CD107a,2,2.021469842506833e-4,3.396468480973852e-4,-8.221811914221165,-8.50631331294413,-7.987264457683469,29,0
"ZMAb + DEF201, 96h",Media,Cyno,5,4.1277947332299135e-6,CD107a.IFNg,3,1.4617893522655858e-10,1.8507718040632162e-5,-12.397763128695361,-22.64618966074517,-10.897304213605292,5,0
"ZMAb + DEF201, 72h",Media,Cyno,1,2.8018943074155074e-6,CD107a.IFNg,3,1.328921082102888e-9,1.2384555315603831e-5,-12.785212029271115,-20.43889843906195,-11.299048016113964,1,0
"ZMAb + DEF201, R, 72h",Media,Rhesus,29,8.316984930362473e-6,CD107a.IFNg,3,2.731462102974261e-7,2.4257885422102846e-5,-11.697202439967691,-15.113258343125976,-10.626744563212625,29,0
"ZMAb + DEF201, 96h",Media,Cyno,5,4.178504502594755e-6,CD107a.IFNg.IL2,4,4.610462033848083e-10,1.7933768026445507e-5,-12.385552971429805,-21.49752285323091,-10.928807206436703,5,0
"ZMAb + DEF201, 72h",Media,Cyno,1,2.8060396873924274e-6,CD107a.IFNg.IL2,4,5.70601329882397e-9,1.195365984881281e-5,-12.783733626579737,-18.981745247778132,-11.334461109245572,1,0
"ZMAb + DEF201, R, 72h",Media,Rhesus,29,3.4747654198784445e-6,CD107a.IFNg.IL2,4,3.5262283842951733e-9,1.4850623113719241e-5,-12.569980111525583,-19.46303698004601,-11.117453882342684,29,0
"ZMAb + DEF201, 96h",Media,Cyno,5,4.23340629636721e-6,CD107a.IFNg.IL2.IL4,5,2.3264933348457573e-10,1.784404835558297e-5,-12.372499384538775,-22.18148880229404,-10.933822686587227,5,0
"ZMAb + DEF201, 72h",Media,Cyno,1,6.831383164092969e-6,CD107a.IFNg.IL2.IL4,5,3.658965864490794e-7,1.9050017703899496e-5,-11.893976560433718,-14.820914728258932,-10.868423476854282,1,0
"ZMAb + DEF201, R, 72h",Media,Rhesus,29,1.3202191760579234e-5,CD107a.IFNg.IL2.IL4,5,1.6797014498710578e-6,3.23211063576712e-5,-11.23511449740844,-13.296892809048341,-10.339757771904974,29,0
"ZMAb + DEF201, 96h",Media,Cyno,5,4.226959294494094e-6,CD107a.IFNg.IL4,6,1.6698249020280999e-9,1.8605180643800996e-5,-12.374023439338504,-20.210547063429942,-10.892051881436851,5,0
"ZMAb + DEF201, 72h",Media,Cyno,1,2.816413046119904e-6,CD107a.IFNg.IL4,6,4.5779409966200274e-9,1.2255236479536139e-5,-12.780043635698052,-19.202016499383358,-11.309544989283022,1,0
"ZMAb + DEF201, R, 72h",Media,Rhesus,29,8.46485313100487e-6,CD107a.IFNg.IL4,6,1.7532411345868647e-7,2.3907142525675296e-5,-11.679579427787825,-15.556629323771702,-10.641309385798738,29,0
"ZMAb + DEF201, 96h",Media,Cyno,5,1.0021775235934456e-5,CD107a.IL2,7,1.683102318360095e-7,2.988204389609183e-5,-11.510740286919784,-15.597456774064486,-10.418222914065034,5,0
"ZMAb + DEF201, 72h",Media,Cyno,1,2.620217059720005e-5,CD107a.IL2,7,8.774290322008768e-6,4.866200971140701e-5,-10.549642100893609,-11.643675892538843,-9.930563257170464,1,0
"ZMAb + DEF201, R, 72h",Media,Rhesus,29,8.167778912273923e-6,CD107a.IL2,7,6.155639980385541e-7,2.3565554256869637e-5,-11.71530537720324,-14.300726303846078,-10.655700911690808,29,0
"ZMAb + DEF201, 96h",Media,Cyno,5,4.190996380115307e-6,CD107a.IL2.IL4,8,1.230060159211025e-10,1.8948415547267483e-5,-12.382567861744704,-22.818787851701515,-10.87377129361787,5,0
"ZMAb + DEF201, 72h",Media,Cyno,1,2.8359989092480004e-6,CD107a.IL2.IL4,8,3.5669332370841645e-9,1.2110006513108218e-5,-12.773113497900844,-19.451559644003183,-11.321466352490658,1,0
"ZMAb + DEF201, R, 72h",Media,Rhesus,29,1.8355373500810558e-5,CD107a.IL2.IL4,8,3.471559842955437e-6,4.003529135913395e-5,-10.905569836957552,-12.57090307097905,-10.125709172762926,29,0
"ZMAb + DEF201, 96h",Media,Cyno,5,4.172044100565508e-6,CD107a.IL4,9,3.859930815083363e-9,1.866618436485293e-5,-12.387100278223466,-19.372616573323903,-10.888778327469616,5,0
"ZMAb + DEF201, 72h",Media,Cyno,1,2.7158948278684465e-6,CD107a.IL4,9,1.2532609389972417e-9,1.1895686058724022e-5,-12.816386356289746,-20.497516930066084,-11.339322843888425,1,0
"ZMAb + DEF201, R, 72h",Media,Rhesus,29,3.315089554350545e-6,CD107a.IL4,9,2.5102573349475263e-9,1.5461866257750976e-5,-12.617022604709252,-19.8028805626642,-11.077118344855611,29,0
"ZMAb + DEF201, 96h",Media,Cyno,5,3.088074881204307e-4,IFNg,10,2.2994240875908373e-4,3.982695621039262e-4,-8.082483635834027,-8.377451708245635,-7.827983141327464,5,0
"ZMAb + DEF201, 72h",Media,Cyno,1,4.441714435401091e-4,IFNg,10,3.629500703144298e-4,5.30566753197823e-4,-7.718855665846395,-7.920882264550462,-7.541034069551088,1,0
"ZMAb + DEF201, R, 72h",Media,Rhesus,29,7.81438287115677e-5,IFNg,10,4.0540066714401495e-5,1.1670726998217501e-4,-9.456881324555187,-10.113179230409443,-9.055725010197317,29,0
"ZMAb + DEF201, 96h",Media,Cyno,5,3.4598283001362846e-5,IFNg.IL2,11,1.1111104414929411e-5,6.56023891774041e-5,-10.271671902488452,-11.407554440802793,-9.631832837749071,5,0
"ZMAb + DEF201, 72h",Media,Cyno,1,2.6875737784201816e-6,IFNg.IL2,11,2.9993622597219e-9,1.1906352502715762e-5,-12.826869024874497,-19.62486614796999,-11.338426570098994,1,0
"ZMAb + DEF201, R, 72h",Media,Rhesus,29,2.3490553722586365e-5,IFNg.IL2,11,6.329641619423664e-6,4.735654145129089e-5,-10.658888696047471,-11.970260609954089,-9.957758239180924,29,0
"ZMAb + DEF201, 96h",Media,Cyno,5,4.050793748094396e-5,IFNg.IL2.IL4,12,1.5221347471757473e-5,7.393498609419157e-5,-10.113972107113009,-11.092796455019245,-9.512250479500958,5,0
"ZMAb + DEF201, 72h",Media,Cyno,1,1.456373006077048e-5,IFNg.IL2.IL4,12,3.7451324476387137e-6,3.1556491938312827e-5,-11.136961798677042,-12.49504982995532,-10.363699666488237,1,0
"ZMAb + DEF201, R, 72h",Media,Rhesus,29,3.331875701483978e-5,IFNg.IL2.IL4,12,1.0536297354778227e-5,5.952655657209141e-5,-10.309356726525962,-11.460673834829674,-9.729028487716764,29,0
"ZMAb + DEF201, 96h",Media,Cyno,5,1.0193818850673166e-5,IFNg.IL4,13,1.578003555991345e-7,2.909715528569699e-5,-11.493718822524487,-15.661935017256868,-10.444841047491948,5,0
"ZMAb + DEF201, 72h",Media,Cyno,1,2.7625040425546104e-6,IFNg.IL4,13,1.105847068710617e-9,1.1793317820191414e-5,-12.79937026524543,-20.62265421652305,-11.347965679930464,1,0
"ZMAb + DEF201, R, 72h",Media,Rhesus,29,2.3640606653110055e-5,IFNg.IL4,13,7.330523678469144e-6,4.704845394405305e-5,-10.652521062724452,-11.823456270892601,-9.96428550276212,29,0
"ZMAb + DEF201, 96h",Media,Cyno,5,9.823557714003061e-4,IL2,14,8.352745935420925e-4,0.0011367661778463065,-6.924574183954551,-7.086914409003054,-6.778430320907847,5,0
"ZMAb + DEF201, 72h",Media,Cyno,1,0.0010532772205882302,IL2,14,9.335115688334697e-4,0.0011899568429103525,-6.8547949807570125,-6.975623254531485,-6.732647573574517,1,0
"ZMAb + DEF201, R, 72h",Media,Rhesus,29,8.629596184614658e-4,IL2,14,7.390265021779705e-4,9.937293701092458e-4,-7.054279327842448,-7.209437475725757,-6.913051428403226,29,0
"ZMAb + DEF201, 96h",Media,Cyno,5,8.350850292190107e-5,IL2.IL4,15,4.530491191299826e-5,1.305185280365112e-4,-9.390478587901965,-10.00204979466475,-8.943864836941753,5,0
"ZMAb + DEF201, 72h",Media,Cyno,1,5.0821932710773206e-5,IL2.IL4,15,2.6678730628752145e-5,8.041779081194365e-5,-9.887131727056191,-10.531617236595169,-9.428194706477873,1,0
"ZMAb + DEF201, R, 72h",Media,Rhesus,29,1.7799659712243123e-4,IL2.IL4,15,1.2219556188526202e-4,2.3504159336152968e-4,-8.633568112704243,-9.00976562730915,-8.355512997233781,29,0
"ZMAb + DEF201, 96h",Media,Cyno,5,2.6529314699338946e-4,IL4,16,1.9049156469106072e-4,3.42533550565637e-4,-8.234409799970248,-8.565712134504338,-7.978798354975095,5,0
"ZMAb + DEF201, 72h",Media,Cyno,1,1.9528277409047116e-4,IL4,16,1.4211860005527874e-4,2.49752681598249e-4,-8.540866624429173,-8.85870650860143,-8.294789619488135,1,0
"ZMAb + DEF201, R, 72h",Media,Rhesus,29,4.970808744604533e-4,IL4,16,4.057112896223427e-4,5.895088251475669e-4,-7.60626061537331,-7.809462967012551,-7.435631184880961,29,0
"ZMapp, 96h",Pool1,Rhesus,22,0.9962641595611259,All.Neg,1,0.9960351741069282,0.996493789202603,5.586039632489044,5.5263206291596205,5.649706997573567,21,0
"ZMapp, 72h",Pool1,Rhesus,18,0.996411432842185,All.Neg,1,0.9961794327650125,0.996611701845739,5.626407255026675,5.563528492308226,5.684033451599719,17,0
"ZMapp, 120h",Pool1,Rhesus,26,0.9969833977311667,All.Neg,1,0.9967935838999631,0.9971696971175653,5.800602996129899,5.73938987764016,5.86453723169532,25,0
"ZMAb + DEF201, 96h",Pool1,Cyno,6,0.9949638866163071,All.Neg,1,0.9946389736048917,0.9952808920239072,5.286071811080061,5.22322438234271,5.351405207239042,5,0
"ZMAb + DEF201, 72h",Pool1,Cyno,2,0.9943403403158906,All.Neg,1,0.9940831479999641,0.9946127654275552,5.168715778811898,5.1240163023450185,5.218321294012828,1,0
"ZMAb + DEF201, R, 72h",Pool1,Rhesus,30,0.9909566981536242,All.Neg,1,0.9905568001432464,0.9913896902360694,4.696646482063041,4.65297231881722,4.746147391315187,29,0
"ZMapp, 96h",Pool1,Rhesus,22,0.0022686886955120143,CD107a,2,0.00211014437372532,0.002457879808562343,-6.086282015509496,-6.158886536403163,-6.005995261742583,21,1
"ZMapp, 72h",Pool1,Rhesus,18,0.0017894530783696978,CD107a,2,0.0016404494423674794,0.0019439666985980324,-6.3240541925652884,-6.4111432280139695,-6.241078844787231,17,0.98875
"ZMapp, 120h",Pool1,Rhesus,26,0.0011507997653309185,CD107a,2,0.0010359993946745913,0.001265024334651325,-6.76614666776128,-6.871352183022972,-6.671398094955785,25,1
"ZMAb + DEF201, 96h",Pool1,Cyno,6,2.882602648996447e-4,CD107a,2,2.16553930610039e-4,3.643868358792967e-4,-8.151358486529048,-8.437454362035822,-7.916930065458567,5,0.99975
"ZMAb + DEF201, 72h",Pool1,Cyno,2,8.427788062215406e-5,CD107a,2,5.314139464585292e-5,1.1923136167222237e-4,-9.381306834778027,-9.842501230423345,-9.034325498190766,1,0.52375
"ZMAb + DEF201, R, 72h",Pool1,Rhesus,30,2.2879400465160884e-4,CD107a,2,1.6246658529678147e-4,3.013106802958832e-4,-8.38245968206572,-8.724875726497473,-8.107067308991823,29,0.206
"ZMapp, 96h",Pool1,Rhesus,22,1.7737321878285388e-5,CD107a.IFNg,3,4.229980761328841e-6,3.490121603793832e-5,-10.939821820147424,-12.373308883075932,-10.262953984043879,21,0.9725
"ZMapp, 72h",Pool1,Rhesus,18,1.6198564928631757e-5,CD107a.IFNg,3,3.88164241309213e-6,3.208075058248016e-5,-11.030571705606022,-12.459248309902975,-10.34722229676501,17,0.638
"ZMapp, 120h",Pool1,Rhesus,26,5.4589603382848035e-6,CD107a.IFNg,3,1.4487358858195731e-7,1.5183634063502209e-5,-12.118246741596867,-15.747404132776436,-11.095277232775937,25,0.7705
"ZMAb + DEF201, 96h",Pool1,Cyno,6,8.81831168096177e-6,CD107a.IFNg,3,1.8101292466492623e-7,2.4634896059861966e-5,-11.638671307310132,-15.52469722022846,-10.611321945983672,5,0.7135
"ZMAb + DEF201, 72h",Pool1,Cyno,2,5.7104100883709925e-006,CD107a.IFNg,3,2.808036958239594e-7,1.5994682389382044e-5,-12.073214007119427,-15.085609722311398,-11.04323824681853,1,0.7105
"ZMAb + DEF201, R, 72h",Pool1,Rhesus,30,4.55525905564376e-5,CD107a.IFNg,3,1.923267223495724e-5,7.748180692460706e-5,-9.996597509438669,-10.858880813384447,-9.46538991371403,29,0.99175
"ZMapp, 96h",Pool1,Rhesus,22,1.3876541133558567e-5,CD107a.IFNg.IL2,4,2.8703701335204683e-6,3.078826467917151e-5,-11.185296955173571,-12.761066699750502,-10.3883461687615,21,0.939
"ZMapp, 72h",Pool1,Rhesus,18,5.738832582671971e-6,CD107a.IFNg.IL2,4,2.0760417403378407e-7,1.6095169320909623e-5,-12.0682490122786,-15.387632372116846,-11.036975277876195,17,0.74475
"ZMapp, 120h",Pool1,Rhesus,26,5.324125147993745e-6,CD107a.IFNg.IL2,4,1.5831985627290519e-7,1.5631709739341462e-5,-12.143256827183357,-15.658648285159165,-11.066193399367846,25,0.7585
"ZMAb + DEF201, 96h",Pool1,Cyno,6,1.9249739029277138e-5,CD107a.IFNg.IL2,4,3.856526014328559e-6,4.200665689134468e-5,-10.857993804318737,-12.465739919481843,-10.077640447288129,5,0.92075
"ZMAb + DEF201, 72h",Pool1,Cyno,2,2.423898147805242e-6,CD107a.IFNg.IL2,4,7.09961484075899e-10,1.0321289365815954e-5,-12.930131084971073,-21.065810394435115,-11.48129154582434,1,0.45925
"ZMAb + DEF201, R, 72h",Pool1,Rhesus,30,5.0674453962644754e-5,CD107a.IFNg.IL2,4,2.325784559553406e-5,8.663929644184179e-5,-9.890037965227123,-10.668844779767387,-9.353670432732025,29,0.99975
"ZMapp, 96h",Pool1,Rhesus,22,3.700873237535002e-5,CD107a.IFNg.IL2.IL4,5,1.672703530977005e-5,6.081112370828007e-5,-10.204319653604252,-10.998467539516838,-9.707677017025441,21,0.91675
"ZMapp, 72h",Pool1,Rhesus,18,1.6122967592486514e-5,CD107a.IFNg.IL2.IL4,5,5.257884469973182e-6,3.334025377591727e-5,-11.035249620904706,-12.155776546237574,-10.308711728105854,17,0.8945
"ZMapp, 120h",Pool1,Rhesus,26,2.803925373256757e-5,CD107a.IFNg.IL2.IL4,5,1.180552098714482e-5,4.844328198788036e-5,-10.481877070892962,-11.346931450057314,-9.935068443446978,25,0.9735
"ZMAb + DEF201, 96h",Pool1,Cyno,6,1.9862800183936632e-4,CD107a.IFNg.IL2.IL4,5,1.387735663026259e-4,2.639488224233724e-4,-8.523878172391212,-8.88252818933776,-8.23949134440404,5,1
"ZMAb + DEF201, 72h",Pool1,Cyno,2,2.9537050971334977e-5,CD107a.IFNg.IL2.IL4,5,1.2186409036602322e-5,4.997593391588668e-5,-10.42983558006572,-11.315177054109169,-9.903919012908103,1,0.982
"ZMAb + DEF201, R, 72h",Pool1,Rhesus,30,2.8715654107162674e-4,CD107a.IFNg.IL2.IL4,5,2.1822975629126381e-4,3.668002869205078e-4,-8.15519585385022,-8.429743868653878,-7.91032616778164,29,1
"ZMapp, 96h",Pool1,Rhesus,22,2.663580759178027e-6,CD107a.IFNg.IL4,6,3.436395228018864e-9,1.122430507596793e-5,-12.835836526767125,-19.48884281038628,-11.397417810484043,21,0.50525
"ZMapp, 72h",Pool1,Rhesus,18,2.4824608161206985e-6,CD107a.IFNg.IL4,6,3.7955684140985673e-10,1.0097645796234609e-5,-12.906257742727757,-21.692016750193055,-11.50319815307158,17,0.5045
"ZMapp, 120h",Pool1,Rhesus,26,2.3320408874731857e-6,CD107a.IFNg.IL4,6,2.1018257990640545e-9,9.721707268632902e-6,-12.968764424364348,-19.980459439723177,-11.541139588240084,25,0.518
"ZMAb + DEF201, 96h",Pool1,Cyno,6,3.576037066878749e-6,CD107a.IFNg.IL4,6,2.2136439478837017e-9,1.553959924803615e-5,-12.541251759205004,-19.928625831859712,-11.072103462051972,5,0.45475
"ZMAb + DEF201, 72h",Pool1,Cyno,2,2.4051007182726696e-6,CD107a.IFNg.IL4,6,4.3306923492589164e-10,1.0367703200788717e-5,-12.937916371480172,-21.560123504372225,-11.476804677474291,1,0.46225
"ZMAb + DEF201, R, 72h",Pool1,Rhesus,30,3.66045051198928e-6,CD107a.IFNg.IL4,6,1.0134528269749865e-9,1.56360655271559e-5,-12.517920666961373,-20.70990269477822,-11.065914783066912,29,0.26425
"ZMapp, 96h",Pool1,Rhesus,22,3.488166003380801e-4,CD107a.IL2,7,2.777936900026045e-4,4.2598631713110815e-4,-7.960615396898562,-8.188354009793674,-7.760677254546209,21,1
"ZMapp, 72h",Pool1,Rhesus,18,8.520242153856655e-5,CD107a.IL2,7,5.322168778924014e-5,1.2222495713799035e-4,-9.370395496667264,-9.840991356374166,-9.009525067753609,17,0.54375
"ZMapp, 120h",Pool1,Rhesus,26,3.9367368546068966e-4,CD107a.IL2,7,3.2894507086193977e-4,4.667215589971744e-4,-7.83959445011665,-8.019290779819203,-7.669310881016558,25,1
"ZMAb + DEF201, 96h",Pool1,Cyno,6,9.297052922042692e-5,CD107a.IL2,7,5.135454261508853e-5,1.3901578787696266e-4,-9.283135030282985,-9.876705805861373,-8.880784023983393,5,0.99975
"ZMAb + DEF201, 72h",Pool1,Cyno,2,2.946100590505547e-5,CD107a.IL2,7,1.2011227104154652e-5,5.0847771608739925e-5,-10.432413541298365,-11.32965674225756,-9.886623410202526,1,0.58475
"ZMAb + DEF201, R, 72h",Pool1,Rhesus,30,6.142297216493172e-5,CD107a.IL2,7,2.7948187119841713e-5,1.0047000971222265e-4,-9.697665228431271,-10.485130273433214,-9.205550810765006,29,0.999
"ZMapp, 96h",Pool1,Rhesus,22,4.106193620458565e-5,CD107a.IL2.IL4,8,1.8448698659044508e-5,6.668007812360334e-5,-10.100387929211953,-10.900498274481617,-9.615537646161302,21,0.42775
"ZMapp, 72h",Pool1,Rhesus,18,3.349761977922163e-5,CD107a.IL2.IL4,8,1.4514178858294866e-5,5.787752174181938e-5,-10.304002674843202,-11.14037001974347,-9.757123595097545,17,0.9075
"ZMapp, 120h",Pool1,Rhesus,26,3.4661881416476304e-5,CD107a.IL2.IL4,8,1.667708765124954e-5,5.708710103102711e-5,-10.269835330599896,-11.001458100295562,-9.770875279474371,25,0.95325
"ZMAb + DEF201, 96h",Pool1,Cyno,6,5.651206910866054e-5,CD107a.IL2.IL4,8,2.5325249847611234e-5,9.141082231599582e-5,-9.780999816415148,-10.583683316656668,-9.300055265429972,5,0.999
"ZMAb + DEF201, 72h",Pool1,Cyno,2,5.822567691015598e-6,CD107a.IL2.IL4,8,2.1911175681879453e-7,1.6127070256283206e-5,-12.053763386906043,-15.333683713070851,-11.034995188336616,1,0.7095
"ZMAb + DEF201, R, 72h",Pool1,Rhesus,30,2.4239365481488298e-5,CD107a.IL2.IL4,8,6.000130916858221e-6,4.931724206399672e-5,-10.62750833395277,-12.023723269348972,-9.917187481994947,29,0.661
"ZMapp, 96h",Pool1,Rhesus,22,1.0037712429158611e-5,CD107a.IL4,9,1.6007782078246097e-6,2.5183368916659505e-5,-11.509151277599992,-13.345019066293027,-10.589301561257352,21,0.69875
"ZMapp, 72h",Pool1,Rhesus,18,2.3793055589557304e-6,CD107a.IL4,9,4.8312994540088124e-9,1.0316083107077505e-5,-12.948699515500511,-19.148150362537827,-11.48179609770739,17,0.05975
"ZMapp, 120h",Pool1,Rhesus,26,8.633069363653691e-6,CD107a.IL4,9,1.1745444175580831e-6,2.1278253377660743e-5,-11.659901820926276,-13.654629040747457,-10.757803696497106,25,0.716
"ZMAb + DEF201, 96h",Pool1,Cyno,6,3.7013759794538564e-6,CD107a.IL4,9,4.6631215196517235e-9,1.5558108866006243e-5,-12.506802219724971,-19.183580754395273,-11.070913026544902,5,0.46375
"ZMAb + DEF201, 72h",Pool1,Cyno,2,2.368104861467014e-6,CD107a.IL4,9,6.326298635284123e-10,1.0006033638200297e-5,-12.95341819110119,-21.181135597937583,-11.512312277017266,1,0.4625
"ZMAb + DEF201, R, 72h",Pool1,Rhesus,30,8.88798935997713e-6,CD107a.IL4,9,2.526346322661969e-7,2.4336055198601497e-5,-11.630800814721088,-15.191321280601544,-10.623527217911475,29,0.764
"ZMapp, 96h",Pool1,Rhesus,22,3.2861821027003615e-5,IFNg,10,1.3873974881295017e-5,5.630233853527118e-5,-10.323166166787624,-11.185481909419279,-9.784718182719132,21,0.4175
"ZMapp, 72h",Pool1,Rhesus,18,6.457258256617369e-5,IFNg,10,3.597900832447113e-5,9.402141119141613e-5,-9.647656081079552,-10.232538912020747,-9.271893997168316,17,0.9355
"ZMapp, 120h",Pool1,Rhesus,26,1.8235626556811992e-5,IFNg,10,5.917988211121183e-6,3.5330133689248096e-5,-10.912115138379793,-12.037508078020169,-10.250738981827618,25,0.555
"ZMAb + DEF201, 96h",Pool1,Cyno,6,4.1643594254065126e-4,IFNg,10,3.2526766234270614e-4,5.103501465210551e-4,-7.783361384931859,-8.030536817575085,-7.579903025596169,5,0.94575
"ZMAb + DEF201, 72h",Pool1,Cyno,2,0.001270113132261821,IFNg,10,0.0011419368459012005,0.0014022670403858778,-6.667378381548378,-6.77388688123735,-6.568261786338849,1,1
"ZMAb + DEF201, R, 72h",Pool1,Rhesus,30,0.002759838585995455,IFNg,10,0.0025333787773871757,0.002996115884124178,-5.889819430336272,-5.975664788865078,-5.807437921236388,29,1
"ZMapp, 96h",Pool1,Rhesus,22,2.8765929992335152e-5,IFNg.IL2,11,9.887888804578802e-6,5.217425695786155e-5,-10.456290091136607,-11.524190014866106,-9.860869170828629,21,0.9415
"ZMapp, 72h",Pool1,Rhesus,18,1.2653835691370084e-5,IFNg.IL2,11,2.4891496306283454e-6,2.7563934876117364e-5,-11.277537518126792,-12.903566930467926,-10.498974782800008,17,0.801
"ZMapp, 120h",Pool1,Rhesus,26,8.667775902635094e-6,IFNg.IL2,11,1.174395436033672e-6,2.0318094487943197e-5,-11.655889660221709,-13.654755890908696,-10.803978396549905,25,0.8885
"ZMAb + DEF201, 96h",Pool1,Cyno,6,3.2681177276294466e-4,IFNg.IL2,11,2.5011583550935753e-4,4.1366942034587836e-4,-8.025799306073504,-8.293336258254682,-7.7900296496860175,5,1
"ZMAb + DEF201, 72h",Pool1,Cyno,2,3.5003581610792566e-4,IFNg.IL2,11,2.8380446490557077e-4,4.2251488881340853e-4,-7.957124979886475,-8.166941216039305,-7.7688632678195235,1,1
"ZMAb + DEF201, R, 72h",Pool1,Rhesus,30,4.4823895653159926e-4,IFNg.IL2,11,3.618682157945363e-4,5.507670805148852e-4,-7.709735743187748,-7.923868523479463,-7.503647640763409,29,1
"ZMapp, 96h",Pool1,Rhesus,22,2.694031616282735e-6,IFNg.IL2.IL4,12,5.524748394126849e-10,1.1391828726842875e-5,-12.824469050195788,-21.316613222545673,-11.382602846025746,21,0.01575
"ZMapp, 72h",Pool1,Rhesus,18,1.2679796310343123e-5,IFNg.IL2.IL4,12,2.528405039809453e-6,2.7608189642281636e-5,-11.275487993060585,-12.8879193446619,-10.497370494515293,17,0.65525
"ZMapp, 120h",Pool1,Rhesus,26,1.1829813544576508e-5,IFNg.IL2.IL4,12,2.2444598063958663e-6,2.5670492401901232e-5,-11.344875811450807,-13.007043442020631,-10.570142710444813,25,0.536
"ZMAb + DEF201, 96h",Pool1,Cyno,6,0.0010943065639270181,IFNg.IL2.IL4,12,9.479582950974871e-4,0.001249435494886469,-6.8165394855149195,-6.960251641298433,-6.683813217072407,5,1
"ZMAb + DEF201, 72h",Pool1,Cyno,2,3.0906194791512336e-4,IFNg.IL2.IL4,12,2.450440755215397e-4,3.7382846741575913e-4,-8.081659712752574,-8.313827389407983,-7.8913396106734135,1,1
"ZMAb + DEF201, R, 72h",Pool1,Rhesus,30,5.219097849673774e-4,IFNg.IL2.IL4,12,4.1909297099355973e-4,6.254312090141395e-4,-7.557493764723431,-7.776998594027808,-7.376443584827888,29,1
"ZMapp, 96h",Pool1,Rhesus,22,2.6937554716568134e-6,IFNg.IL4,13,1.4814475057398819e-9,1.1063270942565413e-5,-12.824571558095808,-20.330246181243915,-11.411868797002874,21,0.504
"ZMapp, 72h",Pool1,Rhesus,18,2.4334571199767684e-6,IFNg.IL4,13,1.9597728717374837e-9,1.0471019944616566e-5,-12.926195195088525,-20.050437250225613,-11.466888650837973,17,0.502
"ZMapp, 120h",Pool1,Rhesus,26,2.201377077814325e-6,IFNg.IL4,13,2.713981426797218e-11,9.724256372178272e-6,-13.026425247580969,-24.33001930499739,-11.540877412665536,25,0.52575
"ZMAb + DEF201, 96h",Pool1,Cyno,6,3.505438662511229e-5,IFNg.IL4,13,1.1992149881760408e-5,6.662278030768343e-5,-10.258574743958102,-11.331246306541274,-9.616397367240937,5,0.94175
"ZMAb + DEF201, 72h",Pool1,Cyno,2,1.9423070605357265e-5,IFNg.IL4,13,5.20819656709005e-6,3.740084431613714e-5,-10.84902956871995,-12.165271702263276,-10.193779876957077,1,0.97375
"ZMAb + DEF201, R, 72h",Pool1,Rhesus,30,1.0256887896446681e-4,IFNg.IL4,13,6.089547473687808e-5,1.4897798273624333e-4,-9.184873421033174,-9.706290795135546,-8.811563040727206,29,0.999
"ZMapp, 96h",Pool1,Rhesus,22,7.469417227640062e-4,IL2,14,6.480404842598768e-4,8.644653806813419e-4,-7.1987761700935575,-7.340909137300584,-7.0525344598777995,21,0.97425
"ZMapp, 72h",Pool1,Rhesus,18,0.0012593159459842068,IL2,14,0.0011340807022751928,0.0013889577446399236,-6.675926495904211,-6.780798185922848,-6.577811713857638,17,1
"ZMapp, 120h",Pool1,Rhesus,26,0.0011876153992209492,IL2,14,0.0010716049127381475,0.0013139226041829276,-6.73461952731242,-6.837525656323776,-6.633423475023331,25,1
"ZMAb + DEF201, 96h",Pool1,Cyno,6,0.0017286163253217674,IL2,14,0.0015315556844812347,0.0019162994344511651,-6.358703890338889,-6.479938543198397,-6.255441192730015,5,1
"ZMAb + DEF201, 72h",Pool1,Cyno,2,0.0022898637547285544,IL2,14,0.0021264716853070563,0.0024649563308902405,-6.07697046943575,-6.151162422685121,-6.003113187970236,1,1
"ZMAb + DEF201, R, 72h",Pool1,Rhesus,30,0.0028189334626518366,IL2,14,0.0025955898963395743,0.0030913816267575645,-5.8685737561647695,-5.9513425035555025,-5.776040989786524,29,1
"ZMapp, 96h",Pool1,Rhesus,22,1.784891678252118e-5,IL2.IL4,15,5.06330024730349e-6,3.540125400550446e-5,-10.93354988695652,-12.193487001169427,-10.248727912687006,21,0.8935
"ZMapp, 72h",Pool1,Rhesus,18,6.81183908113241e-5,IL2.IL4,15,4.08690087066762e-5,9.96015300645353e-5,-9.594195204589802,-10.105097645629755,-9.214233424907363,17,1
"ZMapp, 120h",Pool1,Rhesus,26,6.399622185694777e-5,IL2.IL4,15,3.818713237914045e-5,9.483913998406304e-5,-9.656622511562636,-10.172973759950091,-9.263233521242563,25,0.9475
"ZMAb + DEF201, 96h",Pool1,Cyno,6,3.211927429087356e-4,IL2.IL4,15,2.4006644258643876e-4,4.061222303573011e-4,-8.04314792549445,-8.334354733563233,-7.8084501789583305,5,1
"ZMAb + DEF201, 72h",Pool1,Cyno,2,3.36922528839397e-4,IL2.IL4,15,2.72231654587145e-4,4.0090786771274914e-4,-7.995320559489039,-8.208584914141852,-7.821377925130285,1,1
"ZMAb + DEF201, R, 72h",Pool1,Rhesus,30,4.589811868322733e-4,IL2.IL4,15,3.7256674389495926e-4,5.538167396531748e-4,-7.686042249486315,-7.894721721789535,-7.4981227506387524,29,1
"ZMapp, 96h",Pool1,Rhesus,22,1.4776620199792888e-4,IL4,16,1.051999236169258e-4,1.958201445927748e-4,-8.819731472377176,-9.159542778278261,-8.538118110322403,21,0.82525
"ZMapp, 72h",Pool1,Rhesus,18,2.0270904473065565e-4,IL4,16,1.5445847099649965e-4,2.558749294734627e-4,-8.503536154642648,-8.775430823496858,-8.27056588194068,17,0.91575
"ZMapp, 120h",Pool1,Rhesus,26,7.963483250521111e-5,IL4,16,5.106720775090237e-5,1.1253161941408808e-4,-9.437979328540296,-9.882316925225998,-9.092163776400039,25,0.48825
"ZMAb + DEF201, 96h",Pool1,Cyno,6,4.1976948068524867e-4,IL4,16,3.350658008026459e-4,5.115885389605657e-4,-7.775384995265938,-8.000848503172854,-7.5774781714099735,5,0.994
"ZMAb + DEF201, 72h",Pool1,Cyno,2,9.056727489753379e-4,IL4,16,8.036613790733255e-4,0.001014522409559643,-7.005926438274402,-7.125528563321237,-6.89232227229132,1,1
"ZMAb + DEF201, R, 72h",Pool1,Rhesus,30,0.001192786876352929,IL4,16,0.0010404167946424017,0.001351889252018837,-6.730269298148351,-6.867092923630203,-6.604899415025063,29,1
"ZMapp, 96h",Pool2,Rhesus,23,0.9968695735328861,All.Neg,1,0.9966519811676635,0.9970900605843477,5.763450695735641,5.696032865431113,5.836708835858061,21,0
"ZMapp, 72h",Pool2,Rhesus,19,0.9970743940019915,All.Neg,1,0.9968851482262148,0.9972665491652146,5.831323747002041,5.768453999512635,5.899453232434501,17,0.278
"ZMapp, 120h",Pool2,Rhesus,27,0.9982931865424802,All.Neg,1,0.9981537696345706,0.9984235928620149,6.371418850308839,6.292761422264452,6.451029333649459,25,0.40025
"ZMAb + DEF201, 96h",Pool2,Cyno,7,0.9971638882279781,All.Neg,1,0.9969347697436874,0.9973962455609775,5.862481118076139,5.784562650310367,5.948193710429919,5,0
"ZMAb + DEF201, 72h",Pool2,Cyno,3,0.99776681785068,All.Neg,1,0.9975826496381718,0.9979369404088014,6.102092058459845,6.022662953581541,6.181499968980349,1,0.00625
"ZMAb + DEF201, R, 72h",Pool2,Rhesus,31,0.9967286691382864,All.Neg,1,0.9964682707470149,0.9969770438696948,5.719281692159043,5.642429674087213,5.798492540771939,29,0
"ZMapp, 96h",Pool2,Rhesus,23,0.0018450251701876137,CD107a,2,0.001669716855654424,0.0020093555854109593,-6.293415629879004,-6.393430102054111,-6.2079298355401535,21,0.9985
"ZMapp, 72h",Pool2,Rhesus,19,0.0015180089311375093,CD107a,2,0.0013818456383875505,0.0016570601466079622,-6.488836554262178,-6.5829524529724255,-6.4010518081110925,17,0.412
"ZMapp, 120h",Pool2,Rhesus,27,7.824282573761599e-4,CD107a,2,6.84953569294238e-4,8.783062878276237e-4,-7.152325589103396,-7.2854743157944,-7.0366364857533155,25,0.9675
"ZMAb + DEF201, 96h",Pool2,Cyno,7,1.1024415420847974e-4,CD107a,2,6.607477149485061e-5,1.6146990795366459e-4,-9.112702817863887,-9.624657478794754,-8.731030278177526,5,0.399
"ZMAb + DEF201, 72h",Pool2,Cyno,3,5.808372809289489e-5,CD107a,2,3.2800509717955206e-5,9.211228009062568e-5,-9.753566915165482,-10.325033701465696,-9.29241017275123,1,0.15
"ZMAb + DEF201, R, 72h",Pool2,Rhesus,31,1.6083210747220992e-4,CD107a,2,1.0896418051049434e-4,2.192640254678942e-4,-8.734988702774494,-9.1243823787944809,-8.425014670483606,29,0.0125
"ZMapp, 96h",Pool2,Rhesus,23,1.0616044954467008e-5,CD107a.IFNg,3,1.2246857360663346e-6,2.4913756089063907e-5,-11.453133410246418,-13.612825064180289,-10.600065539597296,21,0.88675
"ZMapp, 72h",Pool2,Rhesus,19,5.6905728136213806e-6,CD107a.IFNg,3,1.764411092615508e-7,1.696253879467109e-5,-12.07669395407171,-15.550278498383125,-10.984486283038727,17,0.17525
"ZMapp, 120h",Pool2,Rhesus,27,1.68845810992295e-5,CD107a.IFNg,3,5.494770920612361e-6,3.305589807842562e-5,-10.989092828758553,-12.111708164888238,-10.317277491887653,25,0.98225
"ZMAb + DEF201, 96h",Pool2,Cyno,7,3.5540127236979626e-6,CD107a.IFNg,3,1.8456981085039833e-10,1.5376512165293818e-5,-12.547429694112836,-22.412993345237577,-11.082654020263337,5,0.4595
"ZMAb + DEF201, 72h",Pool2,Cyno,3,6.773619523735436e-6,CD107a.IFNg,3,2.0705687244923643e-7,1.9007303141934927e-5,-11.902468198652254,-15.390272128228379,-10.870668269276226,1,0.74425
"ZMAb + DEF201, R, 72h",Pool2,Rhesus,31,3.5010114968125903e-6,CD107a.IFNg,3,2.0708314953274417e-10,1.5401049537037037e-5,-12.562455131114161,-22.297900714547367,-11.08105949794313,29,0.26025
"ZMapp, 96h",Pool2,Rhesus,23,1.4749371234384708e-5,CD107a.IFNg.IL2,4,2.8024456319698863e-6,3.1414433746978867e-5,-11.124295354784353,-12.78501527957105,-10.368211682269695,21,0.9485
"ZMapp, 72h",Pool2,Rhesus,19,1.5748202160477295e-5,CD107a.IFNg.IL2,4,4.5360265733035275e-6,3.19059081383698e-5,-11.058768599423033,-12.303454597207057,-10.352687450805869,17,0.95875
"ZMapp, 120h",Pool2,Rhesus,27,2.028908629789749e-6,CD107a.IFNg.IL2,4,1.721384188500568e-9,8.825351680740862e-6,-13.108010501362994,-20.18013710728983,-11.63787328003942,25,0.4985
"ZMAb + DEF201, 96h",Pool2,Cyno,7,3.5451957063060227e-6,CD107a.IFNg.IL2,4,9.219500938365802e-10,1.550219670263079e-5,-12.549913648009754,-20.80453002107488,-11.074513319013557,5,0.45325
"ZMAb + DEF201, 72h",Pool2,Cyno,3,2.746444578576101e-6,CD107a.IFNg.IL2,4,3.2606742581759423e-9,1.201288960663543e-5,-12.805200616846308,-19.54133183203168,-11.329518337797262,1,0.493
"ZMAb + DEF201, R, 72h",Pool2,Rhesus,31,3.579080110995099e-6,CD107a.IFNg.IL2,4,2.4956001976369878e-9,1.5190493275929592e-5,-12.540401163719038,-19.808736574002143,-11.094825577547116,29,0.5015
"ZMapp, 96h",Pool2,Rhesus,23,4.6503182815036315e-5,CD107a.IFNg.IL2.IL4,5,2.234313032931999e-5,7.55767499605985e-5,-9.975943295814085,-10.708969308587585,-9.490286282676669,21,0.96775
"ZMapp, 72h",Pool2,Rhesus,19,2.5823713660504885e-5,CD107a.IFNg.IL2.IL4,5,1.0100098994343732e-5,4.564071454429831e-5,-10.564191530006628,-11.502955232594921,-9.994664735239157,17,0.97625
"ZMapp, 120h",Pool2,Rhesus,27,1.6987675990136255e-5,CD107a.IFNg.IL2.IL4,5,6.273483017967742e-6,3.293567980352825e-5,-10.983005430741807,-11.979172578794664,-10.320921059099476,25,0.8495
"ZMAb + DEF201, 96h",Pool2,Cyno,7,3.529995659599623e-6,CD107a.IFNg.IL2.IL4,5,2.6056845414381432e-9,1.5177429443198667e-5,-12.554210386593113,-19.765570413833263,-11.095685961184243,5,0.45075
"ZMAb + DEF201, 72h",Pool2,Cyno,3,2.7862937544774262e-6,CD107a.IFNg.IL2.IL4,5,8.874158554398593e-11,1.1461218131371778e-5,-12.790795462356458,-23.145292502751097,-11.376530096856676,1,0.248
"ZMAb + DEF201, R, 72h",Pool2,Rhesus,31,3.4603065123057154e-6,CD107a.IFNg.IL2.IL4,5,2.8373833154329537e-10,1.4567772637950408e-5,-12.574149925134178,-21.98296867000912,-11.136684254732145,29,0.1275
"ZMapp, 96h",Pool2,Rhesus,23,2.6647881402295926e-6,CD107a.IFNg.IL4,6,1.6682153777493328e-010,1.1979447694798282e-5,-12.835383335814427,-22.514096510821865,-11.332306089090858,21,0.51775
"ZMapp, 72h",Pool2,Rhesus,19,2.343844911149003e-6,CD107a.IFNg.IL4,6,8.615467211275404e-11,1.0127698728671983e-5,-12.963715508776374,-23.174876922037708,-11.500226311634021,17,0.485
"ZMapp, 120h",Pool2,Rhesus,27,2.1826363067570334e-6,CD107a.IFNg.IL4,6,1.1872236887921619e-9,8.951253086259225e-6,-13.034974914130858,-20.551648289029835,-11.623708074546894,25,0.50975
"ZMAb + DEF201, 96h",Pool2,Cyno,7,3.4722295852251156e-6,CD107a.IFNg.IL4,6,3.3571794337843822e-9,1.501312616485063e-5,-12.570710166339884,-19.512164666383967,-11.106570648623725,5,0.45275
"ZMAb + DEF201, 72h",Pool2,Cyno,3,2.7155480334035076e-6,CD107a.IFNg.IL4,6,6.582167154943018e-10,1.194820317526097e-5,-12.816514055472473,-21.141486883315856,-11.334917704520532,1,0.4935
"ZMAb + DEF201, R, 72h",Pool2,Rhesus,31,3.4915405536950604e-6,CD107a.IFNg.IL4,6,1.3306833575793346e-9,1.5530030212202e-5,-12.565164008203304,-20.437573222642243,-11.07271944524575,29,0.25375
"ZMapp, 96h",Pool2,Rhesus,23,1.3734072653356672e-4,CD107a.IL2,7,9.739056432297523e-5,1.8527512037893237e-4,-8.892908314590938,-9.236683832235565,-8.593483408110012,21,0.75475
"ZMapp, 72h",Pool2,Rhesus,19,1.0694470014887693e-4,CD107a.IL2,7,6.822587562771155e-5,1.4470044628915629e-4,-9.143091727719787,-9.592618428837804,-8.840700129177753,17,0.82775
"ZMapp, 120h",Pool2,Rhesus,27,6.529967740862138e-5,CD107a.IL2,7,4.08962947057006e-5,9.55130662521372e-5,-9.6364581600281891,-10.10443019588107,-9.256151982814487,25,0.13275
"ZMAb + DEF201, 96h",Pool2,Cyno,7,3.398669958199753e-6,CD107a.IL2,7,7.072213415758165e-10,1.5599768411704177e-5,-12.592122992965487,-21.069677426785614,-11.068238889332466,5,0.20125
"ZMAb + DEF201, 72h",Pool2,Cyno,3,1.079471940588745e-5,CD107a.IL2,7,1.4312695951210276e-6,2.6304593779445207e-5,-11.436442692527788,-13.456947247552707,-10.545740660673587,1,0.09425
"ZMAb + DEF201, R, 72h",Pool2,Rhesus,31,2.8825657581274795e-5,CD107a.IL2,7,9.45866386366497e-6,5.569128901754577e-5,-10.454215853116008,-11.568569966794668,-9.79563112148896,29,0.94025
"ZMapp, 96h",Pool2,Rhesus,23,4.648650895819955e-5,CD107a.IL2.IL4,8,2.2593608283856945e-5,7.385732585126738e-5,-9.976301929808498,-10.697820917121796,-9.513301494784056,21,0.5565
"ZMapp, 72h",Pool2,Rhesus,19,2.940172433135193e-5,CD107a.IL2.IL4,8,1.2098798696778611e-5,5.039227244311162e-5,-10.434427832456699,-11.322392292676367,-9.89562232564162,17,0.847
"ZMapp, 120h",Pool2,Rhesus,27,1.7303479338218146e-5,CD107a.IL2.IL4,8,5.873212430767543e-6,3.244803552932532e-5,-10.964585655236895,-12.045102938106398,-10.335838206472229,25,0.63525
"ZMAb + DEF201, 96h",Pool2,Cyno,7,3.5725773670584987e-6,CD107a.IL2.IL4,8,6.23882510979282e-11,1.598196957922836e-5,-12.542219698513637,-23.497644141905425,-11.04403339035612,5,0.4545
"ZMAb + DEF201, 72h",Pool2,Cyno,3,2.6953668681247304e-6,CD107a.IL2.IL4,8,3.571758748138706e-10,1.1764903333880472e-5,-12.823973538323251,-21.752792808564745,-11.350377987260911,1,0.486
"ZMAb + DEF201, R, 72h",Pool2,Rhesus,31,3.5048907827265e-6,CD107a.IL2.IL4,8,1.060047625467548e-9,1.52011299721277e-5,-12.561347693486692,-20.66495199908533,-11.094125591358075,29,0.063
"ZMapp, 96h",Pool2,Rhesus,23,1.8475667413925282e-5,CD107a.IL4,9,4.509493435132491e-6,3.6747685181858305e-5,-10.899037490698124,-12.309321221624225,-10.21139857417763,21,0.9015
"ZMapp, 72h",Pool2,Rhesus,19,8.983994431255357e-6,CD107a.IL4,9,1.3800816820611534e-6,2.1554331968543553e-5,-11.6200569763449,-13.493366490564792,-10.744912187629973,17,0.32825
"ZMapp, 120h",Pool2,Rhesus,27,2.142224409265306e-6,CD107a.IL4,9,4.248610559655303e-9,8.825256537965532e-6,-13.05366368296931,-19.276673830353733,-11.637884060814091,25,0.249
"ZMAb + DEF201, 96h",Pool2,Cyno,7,3.612118363287863e-6,CD107a.IL4,9,1.9088029994947163e-9,1.5369808019563258e-5,-12.531212541362013,-20.076789491273978,-11.083090121160094,5,0.4635
"ZMAb + DEF201, 72h",Pool2,Cyno,3,2.781326161674143e-6,CD107a.IL4,9,3.2631858342421304e-10,1.1762689252844227e-5,-12.79257992610404,-21.84314696166568,-11.350566200915235,1,0.503
"ZMAb + DEF201, R, 72h",Pool2,Rhesus,31,3.5193875516495785e-6,CD107a.IL4,9,6.914434470662967e-10,1.4749992102018492e-5,-12.557220055107358,-21.09223975046109,-11.124253260534077,29,0.506
"ZMapp, 96h",Pool2,Rhesus,23,2.617472213033099e-5,IFNg,10,9.62839002474519e-6,4.8006124949501443e-5,-10.550690242041506,-11.550784901002421,-9.944133944805074,21,0.26975
"ZMapp, 72h",Pool2,Rhesus,19,5.978839478588407e-5,IFNg,10,3.441680082078561e-5,8.820799381567493e-5,-9.72463919278465,-10.276931299465245,-9.335724754343284,17,0.898
"ZMapp, 120h",Pool2,Rhesus,27,5.0039660795862215e-5,IFNg,10,2.8117707967311503e-5,7.694688924031453e-5,-9.902644610135546,-10.479082885226648,-9.47231817437363,25,0.99125
"ZMAb + DEF201, 96h",Pool2,Cyno,7,3.4990283452482053e-4,IFNg,10,2.7551832252780675e-4,4.3988727897584836e-4,-7.9575050936017355,-8.196580868845068,-7.728552063960763,5,0.759
"ZMAb + DEF201, 72h",Pool2,Cyno,3,4.753856378913492e-4,IFNg,10,3.94492051835194e-4,5.620550072791941e-4,-7.650908715402787,-7.837516995436318,-7.4833486221199035,1,0.69525
"ZMAb + DEF201, R, 72h",Pool2,Rhesus,31,4.2894749336373864e-4,IFNg,10,3.3435266422076915e-4,5.185319695919826e-4,-7.7537470001007645,-8.002979832564685,-7.563990207897927,29,1
"ZMapp, 96h",Pool2,Rhesus,23,6.658450130116535e-6,IFNg.IL2,11,3.462417991642453e-7,1.957477117628209e-5,-11.919617155217312,-14.876128118207692,-10.841249430782643,21,0.341
"ZMapp, 72h",Pool2,Rhesus,19,3.275186932064539e-5,IFNg.IL2,11,1.5149149498648963e-5,5.665002671380592e-5,-10.326517766613264,-11.097551017023523,-9.778561447300184,17,0.99125
"ZMapp, 120h",Pool2,Rhesus,27,1.690756731912307e-5,IFNg.IL2,11,4.903191389319193e-6,3.2445301693278444e-5,-10.987732358181914,-12.225619357707954,-10.335922465500111,25,0.98
"ZMAb + DEF201, 96h",Pool2,Cyno,7,3.904790857846113e-5,IFNg.IL2,11,1.4909183782042296e-5,7.075588772322488e-5,-10.150682191971672,-11.113518264379598,-9.556204047809548,5,0.58125
"ZMAb + DEF201, 72h",Pool2,Cyno,3,3.0621978329249925e-5,IFNg.IL2,11,1.2108274532233221e-5,5.554100915178723e-5,-10.393761938320083,-11.321609385090516,-9.79833336387936,1,0.9965
"ZMAb + DEF201, R, 72h",Pool2,Rhesus,31,7.983741032677957e-5,IFNg.IL2,11,4.335795346967759e-5,1.2237756986584002e-4,-9.435438521676444,-10.045977041630865,-9.008277072350335,29,0.9935
"ZMapp, 96h",Pool2,Rhesus,23,1.053361271290272e-5,IFNg.IL2.IL4,12,1.1633393212956623e-6,2.564458649267897e-5,-11.460928669346224,-13.664214799845743,-10.571152416623976,21,0.1685
"ZMapp, 72h",Pool2,Rhesus,19,9.097480432748683e-6,IFNg.IL2.IL4,12,1.0095199355822198e-6,2.175997841101994e-5,-11.607503960778882,-13.80603464189162,-10.73541636790249,17,0.4835
"ZMapp, 120h",Pool2,Rhesus,27,5.04772019036971e-6,IFNg.IL2.IL4,12,3.0359054906166082e-9,1.3805015501155312e-5,-12.196568816328698,-19.61275610443458,-11.190464784606707,25,0.1895
"ZMAb + DEF201, 96h",Pool2,Cyno,7,2.8866047641059572e-5,IFNg.IL2.IL4,12,7.894170495165018e-6,5.570634662088052e-5,-10.452815609134749,-11.749378088685145,-9.795360766699515,5,0.2695
"ZMAb + DEF201, 72h",Pool2,Cyno,3,1.0476256721034719e-5,IFNg.IL2.IL4,12,1.4148177420035471e-6,2.5572706378402963e-5,-11.466388649672234,-13.468508424584085,-10.573959359288787,1,0.34175
"ZMAb + DEF201, R, 72h",Pool2,Rhesus,31,1.106829909238764e-4,IFNg.IL2.IL4,12,7.062027805621541e-5,1.61386809080111e-4,-9.108729691129163,-9.558122607342092,-8.731545133763204,29,0.99875
"ZMapp, 96h",Pool2,Rhesus,23,2.755487300690113e-6,IFNg.IL4,13,7.339975798462665e-10,1.1565845700633086e-5,-12.801913496856086,-21.03251538379764,-11.367442573176474,21,0.51425
"ZMapp, 72h",Pool2,Rhesus,19,2.3233818354740224e-6,IFNg.IL4,13,5.779976949106301e-10,1.0415311743528308e-5,-12.972484422592592,-21.27145123473002,-11.47222313616545,17,0.49125
"ZMapp, 120h",Pool2,Rhesus,27,2.017499026263625e-6,IFNg.IL4,13,1.667858824888397e-9,8.907822489558697e-6,-13.113649901946406,-20.211725172281017,-11.628571827986956,25,0.493
"ZMAb + DEF201, 96h",Pool2,Cyno,7,3.4807680568613672e-6,IFNg.IL4,13,7.984181153444747e-10,1.5012520055584125e-5,-12.568254101761116,-20.948388700830566,-11.10661102200065,5,0.21375
"ZMAb + DEF201, 72h",Pool2,Cyno,3,2.7358651322798763e-6,IFNg.IL4,13,8.180099811244198e-11,1.1992383915846049e-5,-12.809060117307428,-23.226731670448896,-11.331226790890543,1,0.5035
"ZMAb + DEF201, R, 72h",Pool2,Rhesus,31,3.902791980139146e-5,IFNg.IL4,13,1.472455002329056e-5,6.931833555118401e-5,-10.151194246938537,-11.125979662925065,-9.576731783757786,29,0.8075
"ZMapp, 96h",Pool2,Rhesus,23,7.199600075703469e-4,IL2,14,6.22076413793198e-4,8.262390407984448e-4,-7.235594673234802,-7.381825351029594,-7.097799850105965,21,0.95375
"ZMapp, 72h",Pool2,Rhesus,19,8.330266176067608e-4,IL2,14,7.313723256734315e-4,9.418617645323315e-4,-7.089611588621182,-7.21985625052734,-6.966709735342207,17,0.09225
"ZMapp, 120h",Pool2,Rhesus,27,6.315307439752432e-4,IL2,14,5.497874274298742e-4,7.16480765434216e-4,-7.366732203068937,-7.505428911412518,-7.240442418668006,25,0.05475
"ZMAb + DEF201, 96h",Pool2,Cyno,7,7.330672248730685e-4,IL2,14,6.209370559600706e-4,8.606188399548054e-4,-7.217539812264155,-7.383659710413295,-7.056997856763483,5,0.0065
"ZMAb + DEF201, 72h",Pool2,Cyno,3,8.618956075471062e-4,IL2,14,7.53486944351919e-4,9.774725337460361e-4,-7.0555141323149995,-7.190045095762485,-6.929562414397489,1,0.00975
"ZMAb + DEF201, R, 72h",Pool2,Rhesus,31,0.0013868495425476118,IL2,14,0.001216834928095722,0.0015472715288725814,-6.579332808319348,-6.710284536680177,-6.469713733370115,29,1
"ZMapp, 96h",Pool2,Rhesus,23,1.461323705507626e-5,IL2.IL4,15,2.8033572007319617e-6,3.118296271945808e-5,-11.133568179054878,-12.784690055387339,-10.375607495532666,21,0.8255
"ZMapp, 72h",Pool2,Rhesus,19,1.9151019396931493e-5,IL2.IL4,15,5.673110310515179e-6,3.676551415361872e-5,-10.86313546033588,-12.079767361853444,-10.210913501357304,17,0.7145
"ZMapp, 120h",Pool2,Rhesus,27,2.2864295433642763e-5,IL2.IL4,15,9.816911947590887e-6,4.019550213139634e-5,-10.68591115095795,-11.531394133714556,-10.121715259567853,25,0.1765
"ZMAb + DEF201, 96h",Pool2,Cyno,7,7.462070742943502e-5,IL2.IL4,15,3.7567277032884854e-5,1.123702972301595e-4,-9.50301788629788,-10.189339610187988,-9.093598538334291,5,0.38325
"ZMAb + DEF201, 72h",Pool2,Cyno,3,3.4640776382700277e-5,IL2.IL4,15,1.466115446291096e-5,5.951844317832691e-5,-10.270444420249312,-11.130294454169011,-9.729164803845158,1,0.18775
"ZMAb + DEF201, R, 72h",Pool2,Rhesus,31,2.66587689408335e-4,IL2.IL4,15,2.005139379065611e-4,3.4471523504717703e-4,-8.229540704318408,-8.514426263846797,-7.972447112765086,29,0.97
"ZMapp, 96h",Pool2,Rhesus,23,2.0847956966240695e-4,IL4,16,1.5867958622430752e-4,2.6539514848762826e-4,-8.475461007452594,-8.74846487775525,-8.234025285862636,21,0.99525
"ZMapp, 72h",Pool2,Rhesus,19,2.3838432802454526e-4,IL4,16,1.8693255392536302e-4,2.946140155572417e-4,-8.341387950339916,-8.584575730336196,-8.129549822772768,17,0.99275
"ZMapp, 120h",Pool2,Rhesus,27,5.9259206087190956e-5,IL4,16,3.612959157148275e-5,8.744522184500148e-5,-9.733530152057803,-10.228362187039451,-9.344410547654826,25,0.15275
"ZMAb + DEF201, 96h",Pool2,Cyno,7,0.0014479009104695184,IL4,16,0.00128260277876682,0.0016109981505396716,-6.536191469224483,-6.657580418723294,-6.429289025604597,5,1
"ZMAb + DEF201, 72h",Pool2,Cyno,3,7.104851651548659e-4,IL4,16,6.076963850328114e-4,8.115982651389964e-4,-7.248851752409988,-7.405227286338221,-7.115693159806907,1,1
"ZMAb + DEF201, R, 72h",Pool2,Rhesus,31,7.275307708917954e-4,IL4,16,6.076516088871625e-4,8.486470290532229e-4,-7.2251264675047935,-7.405301015626848,-7.07101819982064,29,0.998
"ZMapp, 96h",Pool3,Rhesus,24,0.9953895871782128,All.Neg,1,0.9951621876691797,0.9956564309869245,5.3748168032337285,5.3264431057753425,5.434705885859406,21,0
"ZMapp, 72h",Pool3,Rhesus,20,0.9945539322741991,All.Neg,1,0.9942821617538778,0.9948147838220593,5.207400497311829,5.158430226359163,5.256745039157222,17,0
"ZMapp, 120h",Pool3,Rhesus,28,0.9962725415099006,All.Neg,1,0.9960530990674289,0.9964673749053216,5.5882942247360265,5.530869871539128,5.642175151977503,25,0
"ZMAb + DEF201, 96h",Pool3,Cyno,8,0.9969975567030309,All.Neg,1,0.9967839586978137,0.9972225555835057,5.805321929788826,5.736382861150671,5.883442740041924,5,0
"ZMAb + DEF201, 72h",Pool3,Cyno,4,0.9977129229148147,All.Neg,1,0.997528239924798,0.9978955374906298,6.078190962259959,6.000349981136837,6.161588504416993,1,0.0035
"ZMAb + DEF201, R, 72h",Pool3,Rhesus,32,0.992647823736885,All.Neg,1,0.9922449113143678,0.9930129102038225,4.905379582645181,4.851620730726573,4.956679533792085,29,0
"ZMapp, 96h",Pool3,Rhesus,24,0.0018758735528208426,CD107a,2,0.001724528451247294,0.00204580580853227,-6.276803198010231,-6.361075610302445,-6.189915627370287,21,1
"ZMapp, 72h",Pool3,Rhesus,20,0.0022502502483463314,CD107a,2,0.0020696101357464587,0.0024307661897546955,-6.094461061597201,-6.178323274923899,-6.017115041603745,17,1
"ZMapp, 120h",Pool3,Rhesus,28,0.0012538314899318513,CD107a,2,0.0011326140307251088,0.001376439781815517,-6.680296605651423,-6.782093760371207,-6.586877593712255,25,1
"ZMAb + DEF201, 96h",Pool3,Cyno,8,7.869211114468612e-4,CD107a,2,6.679306246744477e-4,8.989190667894429e-4,-7.146595323259476,-7.310658091309022,-7.013418230026593,5,1
"ZMAb + DEF201, 72h",Pool3,Cyno,4,7.416636921539016e-5,CD107a,2,4.3985609568609964e-5,1.0811276799717813e-4,-9.509125586493465,-10.03160404622215,-9.132227608848918,1,0.35875
"ZMAb + DEF201, R, 72h",Pool3,Rhesus,32,4.1371011175733464e-4,CD107a,2,3.2641883123146254e-4,5.077976548818907e-4,-7.789931246835822,-8.027002770697242,-7.584919580269003,29,0.994
"ZMapp, 96h",Pool3,Rhesus,24,2.0158298938147876e-5,CD107a.IFNg,3,6.580161254418715e-6,3.902899216380351e-5,-10.811874337887078,-11.931444725993865,-10.151166769441941,21,0.98025
"ZMapp, 72h",Pool3,Rhesus,20,1.6952072252296536e-5,CD107a.IFNg,3,4.756665697141935e-6,3.3730342228340275e-5,-10.985103522621968,-12.25595886229105,-10.297079031919596,17,0.65825
"ZMapp, 120h",Pool3,Rhesus,28,8.037766345246435e-6,CD107a.IFNg,3,9.524098728266934e-7,1.932719900571786e-5,-11.731351293328672,-13.864269403716403,-10.853977851855896,25,0.87025
"ZMAb + DEF201, 96h",Pool3,Cyno,8,1.1941200993094675e-5,CD107a.IFNg,3,1.656518462930509e-6,2.760871079316589e-5,-11.335503928099609,-13.310790813001375,-10.49735161749508,5,0.81275
"ZMAb + DEF201, 72h",Pool3,Cyno,4,2.700588831612104e-6,CD107a.IFNg,3,1.6246442152598318e-9,1.241562912657482e-5,-12.8220380223565,-20.23797698796739,-11.296542049867822,1,0.50825
"ZMAb + DEF201, R, 72h",Pool3,Rhesus,32,1.9213624198035677e-5,CD107a.IFNg,3,3.86576569164258e-6,4.3017787112628796e-5,-10.859871723116601,-12.463346920680223,-10.053853855307382,29,0.827
"ZMapp, 96h",Pool3,Rhesus,24,6.317573138137673e-5,CD107a.IFNg.IL2,4,3.77823005940188e-5,9.479224558509167e-5,-9.669527149960302,-10.183632020235603,-9.263728152935867,21,1
"ZMapp, 72h",Pool3,Rhesus,20,7.526913859221495e-5,CD107a.IFNg.IL2,4,4.552506001800316e-5,1.0817802111577024e-4,-9.494365081249741,-9.997202087902533,-9.131624160330126,17,1
"ZMapp, 120h",Pool3,Rhesus,28,6.520665877115881e-5,CD107a.IFNg.IL2,4,4.14482540440067e-5,9.606938360607211e-5,-9.637883757069591,-10.091023350135204,-9.250343807656327,25,1
"ZMAb + DEF201, 96h",Pool3,Cyno,8,1.1936725785189908e-5,CD107a.IFNg.IL2,4,1.3730893308709962e-6,2.781816565305113e-5,-11.335878773154516,-13.498445997662037,-10.489793491357316,5,0.8175
"ZMAb + DEF201, 72h",Pool3,Cyno,4,2.819862331694782e-6,CD107a.IFNg.IL2,4,3.580422768358038e-9,1.1340164434443241e-5,-12.778819672887558,-19.447784948205534,-11.387148419149243,1,0.49425
"ZMAb + DEF201, R, 72h",Pool3,Rhesus,32,4.017290578464138e-5,CD107a.IFNg.IL2,4,1.600745226436302e-5,7.120571769257264e-5,-10.122277601313547,-11.042440170056977,-9.549866229846687,29,0.9965
"ZMapp, 96h",Pool3,Rhesus,24,7.299343223511806e-4,CD107a.IFNg.IL2.IL4,5,6.347037127514876e-4,8.313605059810713e-4,-7.221825796397153,-7.361717356830201,-7.091615329026005,21,1
"ZMapp, 72h",Pool3,Rhesus,20,9.55087241975641e-4,CD107a.IFNg.IL2.IL4,5,8.395848182416122e-4,0.0010684306891691267,-6.952752325173476,-7.081763114846735,-6.840495350854013,17,1
"ZMapp, 120h",Pool3,Rhesus,28,8.291084826703289e-4,CD107a.IFNg.IL2.IL4,5,7.297937718336848e-4,9.276566119574421e-4,-7.094330099332447,-7.222018507870181,-6.981920836722787,25,1
"ZMAb + DEF201, 96h",Pool3,Cyno,8,2.0744865111642726e-5,CD107a.IFNg.IL2.IL4,5,5.068625572341125e-6,4.198185207683354e-5,-10.783191061330815,-12.192435798742396,-10.078231143735549,5,0.93575
"ZMAb + DEF201, 72h",Pool3,Cyno,4,2.8146861677159574e-6,CD107a.IFNg.IL2.IL4,5,1.3651618909712914e-9,1.195734008012785e-5,-12.780656973611178,-20.411992812532752,-11.334153278092165,1,0.2505
"ZMAb + DEF201, R, 72h",Pool3,Rhesus,32,2.2473041910751464e-4,CD107a.IFNg.IL2.IL4,5,1.544901790146065e-4,2.9154087459206236e-4,-8.40038425572535,-8.775225527781544,-8.140038757037841,29,1
"ZMapp, 96h",Pool3,Rhesus,24,2.5375686984169365e-6,CD107a.IFNg.IL4,6,2.4791180318779907e-10,1.0772463293400349e-5,-12.884301603123166,-22.117948065075083,-11.438506602376474,21,0.502
"ZMapp, 72h",Pool3,Rhesus,20,2.5202769293264565e-6,CD107a.IFNg.IL4,6,4.196342892044498e-10,1.0757407101457908e-5,-12.891139249608722,-21.591637523535177,-11.43990525050592,17,0.5095
"ZMapp, 120h",Pool3,Rhesus,28,2.150423123950694e-6,CD107a.IFNg.IL4,6,2.2114238139505114e-10,8.621348029030168e-6,-13.049843782924675,-22.232214361929728,-11.661260480251954,25,0.49975
"ZMAb + DEF201, 96h",Pool3,Cyno,8,3.159303663278717e-6,CD107a.IFNg.IL4,6,6.065774445546748e-10,1.3602187356448054e-5,-12.665155755061496,-21.223188704150378,-11.205266340842023,5,0.4185
"ZMAb + DEF201, 72h",Pool3,Cyno,4,2.7534166457548367e-6,CD107a.IFNg.IL4,6,1.0666810673384526e-9,1.1696117343673928e-5,-12.802665247388118,-20.65871381420349,-11.356241926017578,1,0.4935
"ZMAb + DEF201, R, 72h",Pool3,Rhesus,32,3.6856748213543767e-6,CD107a.IFNg.IL4,6,3.43911677035309e-10,1.5429056663334124e-5,-12.511053236852199,-21.790636243982217,-11.079242600812943,29,0.2625
"ZMapp, 96h",Pool3,Rhesus,24,6.52294967943047e-4,CD107a.IL2,7,5.655334120631357e-4,7.510098078634404e-4,-7.334361185716338,-7.477175486658987,-7.1933405545901445,21,1
"ZMapp, 72h",Pool3,Rhesus,20,7.001451498257058e-4,CD107a.IL2,7,6.044179024619734e-4,8.012715850228756e-4,-7.2635224971565675,-7.410640107146098,-7.128509018131448,17,1
"ZMapp, 120h",Pool3,Rhesus,28,4.5257433587137983e-4,CD107a.IL2,7,3.829047600523945e-4,5.314878199728363e-4,-7.7001058533691324,-7.867341289890421,-7.539298647660967,25,1
"ZMAb + DEF201, 96h",Pool3,Cyno,8,2.9975833580575212e-5,CD107a.IL2,7,1.046787456796618e-5,5.4041225457791826e-5,-10.415089071960999,-11.46718908786466,-9.82570932557852,5,0.91975
"ZMAb + DEF201, 72h",Pool3,Cyno,4,2.262947478444983e-5,CD107a.IL2,7,7.81721725024768e-6,4.4451659055397176e-5,-10.696234677675271,-11.759174099840969,-10.0210638199729,1,0.39
"ZMAb + DEF201, R, 72h",Pool3,Rhesus,32,6.158221641188664e-5,CD107a.IL2,7,3.1259428683311905e-5,9.891105928685313e-5,-9.695075839604668,-10.373158249506295,-9.221190586715357,29,0.99975
"ZMapp, 96h",Pool3,Rhesus,24,2.781266348605299e-4,CD107a.IL2.IL4,8,2.1518053211213678e-4,3.4629677582868646e-4,-8.18715586159158,-8.443817994244943,-7.9678680601904865,21,1
"ZMapp, 72h",Pool3,Rhesus,20,2.9233229131249894e-4,CD107a.IL2.IL4,8,2.3314536765032848e-4,3.5842680791477356e-4,-8.13732704373327,-8.363615230895228,-7.933427589733292,17,1
"ZMapp, 120h",Pool3,Rhesus,28,2.362307877489576e-4,CD107a.IL2.IL4,8,1.8631489667400155e-4,2.9080800841297055e-4,-8.350465057900108,-8.58788599062163,-8.142556423136043,25,1
"ZMAb + DEF201, 96h",Pool3,Cyno,8,7.4254693414707216e-6,CD107a.IL2.IL4,8,2.5362202280320793e-7,2.159796085852279e-5,-11.810587238803842,-15.187420523825065,-10.74289005423448,5,0.66675
"ZMAb + DEF201, 72h",Pool3,Cyno,4,6.549717381185537e-6,CD107a.IL2.IL4,8,9.90363808236466e-8,1.9392563554989638e-5,-11.936082107419786,-16.127778472213663,-10.850601494537772,1,0.747
"ZMAb + DEF201, R, 72h",Pool3,Rhesus,32,6.66584121163106e-5,CD107a.IL2.IL4,8,3.419442830600341e-5,1.059757695892867e-4,-9.615862645371914,-10.283413647184,-9.152194097377501,29,0.991
"ZMapp, 96h",Pool3,Rhesus,24,6.031925373411643e-6,CD107a.IL4,9,2.5102646735567023e-7,1.7379911896449157e-5,-12.018438267173474,-15.197707204715186,-10.960178127326133,21,0.4915
"ZMapp, 72h",Pool3,Rhesus,20,6.1427533219649275e-6,CD107a.IL4,9,3.026556654285118e-7,1.6514596064941113e-5,-12.000231349772138,-15.010669792721265,-11.011249443365706,17,0.2005
"ZMapp, 120h",Pool3,Rhesus,28,5.115024155273514e-6,CD107a.IL4,9,2.5036115561545147e-7,1.4760218456593646e-5,-12.183323321095983,-15.200361088724344,-11.12356017799186,25,0.51125
"ZMAb + DEF201, 96h",Pool3,Cyno,8,3.1350858315782124e-6,CD107a.IL4,9,2.8052527813136406e-9,1.3121555292266667e-5,-12.672850870669581,-19.691772181111514,-11.241241116214804,5,0.4255
"ZMAb + DEF201, 72h",Pool3,Cyno,4,2.82391535728638e-6,CD107a.IL4,9,5.596553745707556e-10,1.1707003611769687e-5,-12.777383387495425,-21.303699923629797,-11.355311588880964,1,0.5135
"ZMAb + DEF201, R, 72h",Pool3,Rhesus,32,3.51398444735507e-5,CD107a.IL4,9,1.1650693623109463e-5,6.437173463130343e-5,-10.256139760662425,-11.360133190499084,-9.650771550634236,29,0.992
"ZMapp, 96h",Pool3,Rhesus,24,6.710557994782346e-5,IFNg,10,3.867493405010188e-5,1.0051269036879062e-4,-9.609176250926609,-10.160280191057959,-9.20512604836844,21,0.941
"ZMapp, 72h",Pool3,Rhesus,20,4.964737750337087e-5,IFNg,10,2.5919381389750182e-5,7.827075176061491e-5,-9.9105153399284,-10.56049363318388,-9.455258291669047,17,0.76175
"ZMapp, 120h",Pool3,Rhesus,28,4.393891254596602e-5,IFNg,10,2.2968674859772145e-5,6.709267483946186e-5,-10.03266630004869,-10.681356264029152,-9.609368592837484,25,0.97625
"ZMAb + DEF201, 96h",Pool3,Cyno,8,5.29721960373381e-4,IFNg,10,4.430980373572743e-4,6.29647073466365e-4,-7.542628429826915,-7.72127631287924,-7.369721251012423,5,0.99975
"ZMAb + DEF201, 72h",Pool3,Cyno,4,4.3800024142027897e-4,IFNg,10,3.649495112592167e-4,5.254923772039134e-4,-7.732853000208584,-7.915386523145287,-7.550649243052315,1,0.45675
"ZMAb + DEF201, R, 72h",Pool3,Rhesus,32,6.990178485470872e-4,IFNg,10,5.923952755709046e-4,8.259560138678898e-4,-7.2651350193788975,-7.430743879857446,-7.098142740533677,29,1
"ZMapp, 96h",Pool3,Rhesus,24,3.800736171260781e-5,IFNg.IL2,11,1.6780949822890368e-5,6.224290210232964e-5,-10.177692679637818,-10.995249472973489,-9.684403806733775,21,0.9825
"ZMapp, 72h",Pool3,Rhesus,20,9.796438875093421e-6,IFNg.IL2,11,1.3550152464503913e-6,2.3489847430213572e-5,-11.53348182193194,-13.51169649668684,-10.658918764286433,17,0.7025
"ZMapp, 120h",Pool3,Rhesus,28,1.3995820365485869e-5,IFNg.IL2,11,4.130281162755619e-6,2.843042175643518e-5,-11.176737822326672,-12.397160944869793,-10.468022366677467,25,0.96925
"ZMAb + DEF201, 96h",Pool3,Cyno,8,7.48606960952941e-5,IFNg.IL2,11,4.1872343648937745e-5,1.1497762932982997e-4,-9.4998066934049,-10.080843131860073,-9.070657991850897,5,0.95275
"ZMAb + DEF201, 72h",Pool3,Cyno,4,4.64123298534409e-5,IFNg.IL2,11,2.2142180878871674e-5,7.545726129046227e-5,-9.977898991024963,-10.718003989094887,-9.491868677505275,1,0.99925
"ZMAb + DEF201, R, 72h",Pool3,Rhesus,32,1.4586640065342342e-4,IFNg.IL2,11,9.953690437547809e-5,2.0295659138122707e-4,-8.832673542160055,-9.214882542460966,-8.50231546015917,29,1
"ZMapp, 96h",Pool3,Rhesus,24,9.486819389992908e-6,IFNg.IL2.IL4,12,1.0805180326932072e-6,2.316857161517901e-5,-11.565597668501551,-13.73806889140845,-10.672690700608824,21,0.1365
"ZMapp, 72h",Pool3,Rhesus,20,1.7160837524710735e-5,IFNg.IL2.IL4,12,4.273248241925074e-6,3.400986247137386e-5,-10.972863497309373,-12.363132034266759,-10.288825992282774,17,0.78825
"ZMapp, 120h",Pool3,Rhesus,28,1.0976552800898974e-5,IFNg.IL2.IL4,12,2.1174189787622702e-6,2.4562354326923457e-5,-11.41973814712256,-13.065310556417076,-10.61427103640689,25,0.49975
"ZMAb + DEF201, 96h",Pool3,Cyno,8,1.1910098443890458e-4,IFNg.IL2.IL4,12,7.658810109778663e-5,1.6469681317601511e-4,-9.035419707909742,-9.476992240398832,-8.711239559855933,5,0.99825
"ZMAb + DEF201, 72h",Pool3,Cyno,4,6.199248448325416e-5,IFNg.IL2.IL4,12,3.459945708189464e-5,9.368532430754976e-5,-9.688435403872612,-10.27163796724277,-9.275475315526108,1,0.99825
"ZMAb + DEF201, R, 72h",Pool3,Rhesus,32,1.4596951683249694e-4,IFNg.IL2.IL4,12,9.633932527012283e-5,2.0271139294679807e-4,-8.831966766702452,-9.247537616452215,-8.503524568190521,29,1
"ZMapp, 96h",Pool3,Rhesus,24,2.4994381508789227e-6,IFNg.IL4,13,4.3745270555698907e-10,1.0484324507151293e-5,-12.899442091555015,-21.55005251712085,-11.465618835993808,21,0.48175
"ZMapp, 72h",Pool3,Rhesus,20,2.4634869568059077e-6,IFNg.IL4,13,7.322624942875822e-10,1.0755846410093304e-5,-12.913930286064902,-21.034882066762613,-11.440050343218601,17,0.50575
"ZMapp, 120h",Pool3,Rhesus,28,2.031523971059557e-6,IFNg.IL4,13,1.3917869188058148e-10,9.32851570235442e-6,-13.106722290377467,-22.695262455176845,-11.582425315909752,25,0.497
"ZMAb + DEF201, 96h",Pool3,Cyno,8,7.632513900555015e-6,IFNg.IL4,13,6.009619664318581e-7,2.218641595353968e-5,-11.783085658563776,-14.324733587258786,-10.716008163692191,5,0.393
"ZMAb + DEF201, 72h",Pool3,Cyno,4,2.8057015973374086e-6,IFNg.IL4,13,2.0135252000251172e-9,1.283008957352428e-5,-12.783854120731878,-20.02337881816912,-11.263704567620687,1,0.497
"ZMAb + DEF201, R, 72h",Pool3,Rhesus,32,1.3543510477220973e-4,IFNg.IL4,13,8.985893478350579e-5,1.903561965257753e-4,-8.906882519662348,-9.31717964559884,-8.56642314802215,29,1
"ZMapp, 96h",Pool3,Rhesus,24,6.500874969719942e-4,IL2,14,5.625206569419214e-4,7.481946772711255e-4,-7.337753294512185,-7.482520022176639,-7.197098875406477,21,0.7555
"ZMapp, 72h",Pool3,Rhesus,20,8.717098808839855e-4,IL2,14,7.606515971104301e-4,9.814018898154028e-4,-7.044181804781407,-7.180574186352692,-6.925546624898203,17,0.212
"ZMapp, 120h",Pool3,Rhesus,28,6.696475857721315e-4,IL2,14,5.867614589769919e-4,7.596370798608104e-4,-7.308089103446274,-7.440305260179932,-7.1819098394846135,25,0.1505
"ZMAb + DEF201, 96h",Pool3,Cyno,8,8.408212075727427e-4,IL2,14,7.290277423750862e-4,9.631796739155479e-4,-7.080290340735213,-7.223069477683173,-6.944306942465286,5,0.07375
"ZMAb + DEF201, 72h",Pool3,Cyno,4,0.0011480151059650727,IL2,14,0.0010132194186821797,0.0012852281845890656,-6.768572148085094,-6.8936087412529385,-6.655532946045267,1,0.83175
"ZMAb + DEF201, R, 72h",Pool3,Rhesus,32,0.0037853089253171955,IL2,14,0.003510090547079414,0.004058988525157093,-5.572835285771684,-5.648597179579782,-5.50275421956337,29,1
"ZMapp, 96h",Pool3,Rhesus,24,4.89156324958957e-5,IL2.IL4,15,2.5410649899552467e-5,7.483164931477971e-5,-9.925364612799596,-10.580316773459465,-9.500194808842632,21,0.99975
"ZMapp, 72h",Pool3,Rhesus,20,3.140201092853727e-5,IL2.IL4,15,1.3464425861877016e-5,5.4528175874812113e-005,-10.3686072222866,-11.215446007389458,-9.81673847169635,17,0.9335
"ZMapp, 120h",Pool3,Rhesus,28,1.9957959993812985e-5,IL2.IL4,15,6.565756225991701e-6,3.7120407447092094e-5,-10.821862538863845,-11.933636300510942,-10.201306552525926,25,0.1245
"ZMAb + DEF201, 96h",Pool3,Cyno,8,8.27071782010712e-5,IL2.IL4,15,4.8490138533559093e-5,1.2106880650117236e-4,-9.400121451024486,-9.934101618585771,-9.019030449081038,5,0.4975
"ZMAb + DEF201, 72h",Pool3,Cyno,4,3.872410900473417e-5,IL2.IL4,15,1.7995587380453222e-5,6.524410205580516e-5,-10.159009455337493,-10.92536597990226,-9.637309659565691,1,0.256
"ZMAb + DEF201, R, 72h",Pool3,Rhesus,32,5.398166761504794e-4,IL2.IL4,15,4.447477148792319e-4,6.477386010271481e-4,-7.5237410022258535,-7.717558522776412,-7.34137538799935,29,1
"ZMapp, 96h",Pool3,Rhesus,24,1.4938935081679666e-4,IL4,16,1.0426568716797119e-4,1.959628475521776e-4,-8.80880516696894,-9.168463961051215,-8.537389487955691,21,0.84125
"ZMapp, 72h",Pool3,Rhesus,20,1.505070201012319e-4,IL4,16,1.0690479044454034e-4,1.9623113679341134e-4,-8.801350311324867,-9.14346501804169,-8.536021073778903,17,0.4765
"ZMapp, 120h",Pool3,Rhesus,28,9.82417052612296e-5,IL4,16,6.791773799757425e-5,1.3575384025582953e-4,-9.227981489069677,-9.597145400393899,-8.904531547317337,25,0.78375
"ZMAb + DEF201, 96h",Pool3,Cyno,8,4.538114098093445e-4,IL4,16,3.6522964512137414e-4,5.422468540982726e-4,-7.697374928706463,-7.914618941149118,-7.519246815921757,5,0.999
"ZMAb + DEF201, 72h",Pool3,Cyno,4,4.153299207625791e-4,IL4,16,3.3549743495631617e-4,4.956972764347088e-4,-7.786021947587108,-7.999560693290672,-7.609049327160165,1,1
"ZMAb + DEF201, R, 72h",Pool3,Rhesus,32,0.0010136985693636185,IL4,16,8.74026240650964e-4,0.0011590983593337734,-6.893135474169223,-7.04152575070704,-6.7589530819028445,29,1
"ZMapp1, 72h",Pool1,Rhesus,10,0.9525421685656229,All.Neg,1,0.9515407561605524,0.9534747318166009,2.9992928200081925,2.97735940795023,3.0201173574372464,9,0
"ZMapp2, 72h",Pool1,Rhesus,14,0.9793573562682849,All.Neg,1,0.9788564081033497,0.9798808088371643,3.8595375774630702,3.83504808379072,3.885756796863137,13,0
"ZMapp1, 72h",Pool1,Rhesus,10,0.01777088348818654,CD107a,2,0.017179364883377884,0.018384072653352963,-4.012263238451185,-4.046717689177488,-3.9777154460814366,9,1
"ZMapp2, 72h",Pool1,Rhesus,14,0.009151393787890764,CD107a,2,0.008827568169315535,0.009493627831853334,-4.6846555597210555,-4.721008945833832,-4.647595480393991,13,0.995
"ZMapp1, 72h",Pool1,Rhesus,10,6.34771137997262e-5,CD107a.IFNg,3,3.086816200276251e-5,9.97557567855342e-5,-9.66476765050404,-10.385754392501333,-9.212686030991179,9,0.9855
"ZMapp2, 72h",Pool1,Rhesus,14,8.353279748030327e-5,CD107a.IFNg,3,5.254044341989205e-5,1.196169303734461e-4,-9.390187682745195,-9.853874792255814,-9.03109654407472,13,0.99825
"ZMapp1, 72h",Pool1,Rhesus,10,0.0025399491153429202,CD107a.IFNg.IL2,4,0.002312164745559927,0.0027673761118326055,-5.973068051223371,-6.067256232054591,-5.88708444737929,9,1
"ZMapp2, 72h",Pool1,Rhesus,14,2.4109015551579806e-4,CD107a.IFNg.IL2,4,1.8918798442367146e-4,2.9985489289810236e-4,-8.330098485927978,-8.572580204754905,-8.111911990805273,13,1
"ZMapp1, 72h",Pool1,Rhesus,10,0.016780851624969086,CD107a.IFNg.IL2.IL4,5,0.016138064027892314,0.017350151156625866,-4.070593581493544,-4.110304871294769,-4.036651631468112,9,1
"ZMapp2, 72h",Pool1,Rhesus,14,0.003443664938753174,CD107a.IFNg.IL2.IL4,5,0.0032360960430832734,0.0036537790943024103,-5.6677693775479465,-5.730146257132096,-5.6083328082605215,13,1
"ZMapp1, 72h",Pool1,Rhesus,10,9.054181329905142e-6,CD107a.IFNg.IL4,6,3.1782994008139174e-7,2.5764907020367714e-5,-11.61227482732711,-14.96174905900013,-10.566471419708975,9,0.0975
"ZMapp2, 72h",Pool1,Rhesus,14,5.421560020258357e-6,CD107a.IFNg.IL4,6,2.242447806025505e-7,1.5548575133790982e-5,-12.125121535736204,-15.31052738693858,-11.07152600610888,13,0.0545
"ZMapp1, 72h",Pool1,Rhesus,10,0.005305079884501395,CD107a.IL2,7,0.004979917448339194,0.005619320797003549,-5.233771246899963,-5.297349606163464,-5.175909308428577,9,1
"ZMapp2, 72h",Pool1,Rhesus,14,0.002106566975299316,CD107a.IL2,7,0.0019373233211705783,0.002278414819244021,-6.160586893554293,-6.244508787608741,-6.081994318179379,13,1
"ZMapp1, 72h",Pool1,Rhesus,10,0.0027571536977333572,CD107a.IL2.IL4,8,0.0025244951554089516,0.0030176817385575263,-5.8907954386669505,-5.97918648763066,-5.800244134497201,9,1
"ZMapp2, 72h",Pool1,Rhesus,14,0.0018493938367836866,CD107a.IL2.IL4,8,0.0017022347457434142,0.0019976910001375343,-6.291046243298431,-6.374109649679462,-6.213763576255615,13,1
"ZMapp1, 72h",Pool1,Rhesus,10,1.5565023744997674e-4,CD107a.IL4,9,1.0667874899662919e-4,2.187729519168481e-4,-8.767743473187698,-9.145581900970404,-8.42725731829593,9,0.988
"ZMapp2, 72h",Pool1,Rhesus,14,1.2204429324033405e-4,CD107a.IL4,9,8.458460590133678e-5,1.6237694249005065e-4,-9.011004468032864,-9.377673683067226,-8.725427729930788,13,2.5e-4
"ZMapp1, 72h",Pool1,Rhesus,10,1.1268223112670042e-4,IFNg,10,6.918449066343553e-5,1.6332269969770243e-4,-9.090826126015438,-9.578664656936782,-8.719619225500377,9,0.41825
"ZMapp2, 72h",Pool1,Rhesus,14,1.7952482479306433e-4,IFNg,10,1.3362455975853027e-4,2.3113529297428677e-4,-8.625017518974348,-8.920342849740253,-8.372276173008116,13,0.61375
"ZMapp1, 72h",Pool1,Rhesus,10,6.927108537101167e-5,IFNg.IL2,11,3.566883929018526e-5,1.0908576180979315e-4,-9.57741370386544,-10.241197429872171,-9.12326708779786,9,0.3405
"ZMapp2, 72h",Pool1,Rhesus,14,4.1088728078780246e-5,IFNg.IL2,11,2.0689677423887477e-5,6.610703028279866e-5,-10.099735640495641,-10.785854967355828,-9.624169349259404,13,0.19825
"ZMapp1, 72h",Pool1,Rhesus,10,2.0100151854126998e-5,IFNg.IL2.IL4,12,3.7363412986450412e-6,4.349988168550332e-5,-10.814763087642227,-12.497399951394879,-10.042708838918989,9,0.50925
"ZMapp2, 72h",Pool1,Rhesus,14,5.493143982405291e-6,IFNg.IL2.IL4,12,2.231232813617108e-7,1.5220166972830448e-5,-12.112004298808403,-15.315541163899434,-11.092874014688501,13,0.17675
"ZMapp1, 72h",Pool1,Rhesus,10,1.4445224369997463e-5,IFNg.IL4,13,1.8227834910014354e-6,3.4719982441947786e-5,-11.145132246127899,-13.215144011757117,-10.268160453291326,9,0.0135
"ZMapp2, 72h",Pool1,Rhesus,14,1.819371182693786e-5,IFNg.IL4,13,6.199521029354315e-6,3.566545094029928e-5,-10.914416333718856,-11.991032322687124,-10.241292432450445,13,0.02625
"ZMapp1, 72h",Pool1,Rhesus,10,9.197320697676699e-4,IL2,14,7.828436555592028e-4,0.0010585140155933092,-6.990508003567027,-7.151794405288555,-6.8498301518447136,9,0.96825
"ZMapp2, 72h",Pool1,Rhesus,14,0.0017480333427550157,IL2,14,0.0016062746192151822,0.0018941040171393917,-6.347514364192256,-6.43223011623893,-6.267113466333588,13,1
"ZMapp1, 72h",Pool1,Rhesus,10,5.25807714414908e-5,IL2.IL4,15,2.4245752456107404e-5,9.049166249759442e-5,-9.853107484849653,-10.627244866325254,-9.310162342843645,9,0.14875
"ZMapp2, 72h",Pool1,Rhesus,14,8.972811473878406e-5,IL2.IL4,15,5.860359188051843e-5,1.2408384572416923e-4,-9.31863667511246,-9.74465596306123,-8.994428954123011,13,0.17925
"ZMapp1, 72h",Pool1,Rhesus,10,8.494788240214234e-4,IL4,16,7.144582517810295e-4,9.853182097265757e-4,-7.070037704906619,-7.243271278680306,-6.921560109448606,9,0.01125
"ZMapp2, 72h",Pool1,Rhesus,14,0.0015413232913737028,IL4,16,0.0014033414205376678,0.0016753819131591758,-6.4735714390615176,-6.567494830092806,-6.390037344903769,13,0
"ZMapp1, 72h",Pool2,Rhesus,11,0.9837746394345819,All.Neg,1,0.9832412225505386,0.9842626287263996,4.104821360683861,4.071932336445279,4.135854540812683,9,0.9995
"ZMapp2, 72h",Pool2,Rhesus,15,0.9877081382811328,All.Neg,1,0.9872854236519651,0.9880760610043128,4.386449852989129,4.352210101409732,4.417211619898794,13,1
"ZMapp1, 72h",Pool2,Rhesus,11,0.013710726771627137,CD107a,2,0.013261102021041977,0.014196568105446082,-4.275771189631703,-4.309570373401323,-4.240456722912473,9,0.002
"ZMapp2, 72h",Pool2,Rhesus,15,0.008254319419573705,CD107a,2,0.00794501394057869,0.008580274989522733,-4.788730074691071,-4.8272339806215045,-4.749672018458429,13,0.10325
"ZMapp1, 72h",Pool2,Rhesus,11,3.2326173691787836e-5,CD107a.IFNg,3,1.376465582630811e-5,5.792525334577602e-5,-10.339600998165286,-11.193392658469106,-9.75629918703807,9,0.776
"ZMapp2, 72h",Pool2,Rhesus,15,3.4601441782725585e-5,CD107a.IFNg,3,1.7284567719599148e-5,5.782589803339581e-5,-10.271580604707369,-10.96567920917682,-9.758015992204598,13,0.64975
"ZMapp1, 72h",Pool2,Rhesus,11,2.4324257711663275e-5,CD107a.IFNg.IL2,4,8.777280722005585e-6,4.697071597990759e-5,-10.624012121254896,-11.643335133724534,-9.96593924287756,9,0.33275
"ZMapp2, 72h",Pool2,Rhesus,15,2.166306169409625e-5,CD107a.IFNg.IL2,4,8.755083800906135e-6,4.048365244439268e-5,-10.739880310633055,-11.645867265373312,-10.114571824214085,13,0.993
"ZMapp1, 72h",Pool2,Rhesus,11,1.3476728571444976e-4,CD107a.IFNg.IL2.IL4,5,9.0306545812016e-5,1.852105062689254e-4,-8.911826300150087,-9.312210299932305,-8.593832280387536,9,0.1575
"ZMapp2, 72h",Pool2,Rhesus,15,6.11717939140374e-5,CD107a.IFNg.IL2.IL4,5,3.537201362421767e-5,9.004319800200484e-5,-9.70176318477813,-10.24955425344207,-9.31513097773432,13,0.834
"ZMapp1, 72h",Pool2,Rhesus,11,2.8788959979556445e-6,CD107a.IFNg.IL4,6,1.207382328810939e-8,1.272625456323315e-5,-12.758100792450733,-18.232226080342627,-11.271830683620966,9,0.01225
"ZMapp2, 72h",Pool2,Rhesus,15,2.205622018769585e-6,CD107a.IFNg.IL4,6,1.9889968929187675e-10,9.8645860429433e-6,-13.024498788542152,-22.338220492003288,-11.526549516930741,13,0.0125
"ZMapp1, 72h",Pool2,Rhesus,11,2.9900024176793716e-4,CD107a.IL2,7,2.326497040212215e-4,3.708994377162412e-4,-8.114767131034244,-8.36574397510949,-7.899208621230224,9,0.53575
"ZMapp2, 72h",Pool2,Rhesus,15,3.6220444830430023e-4,CD107a.IL2,7,0.00029681392620255957,4.2867321278165365e-4,-7.922939461182046,-8.122108268619984,-7.754386905957233,13,0.999
"ZMapp1, 72h",Pool2,Rhesus,11,8.793841101022837e-5,CD107a.IL2.IL4,8,5.557579176656881e-5,1.2783930164003877e-4,-9.338785921118776,-9.797707274067486,-8.964608691253105,9,0.09175
"ZMapp2, 72h",Pool2,Rhesus,15,7.100829563471046e-5,CD107a.IL2.IL4,8,4.50785697031526e-5,1.0141479080106312e-4,-9.55264283700587,-10.007058517679377,-9.19619019162276,13,0.20225
"ZMapp1, 72h",Pool2,Rhesus,11,4.955775568212217e-5,CD107a.IL4,9,2.472185527163018e-5,7.920131309739872e-5,-9.912322228109378,-10.60779815458879,-9.443438475319036,9,0.14875
"ZMapp2, 72h",Pool2,Rhesus,15,7.070657915440095e-5,CD107a.IL4,9,4.2767058800539625e-5,1.0065771452889178e-4,-9.556901222965783,-10.059699637932034,-9.203684098951975,13,0
"ZMapp1, 72h",Pool2,Rhesus,11,1.256351832238363e-4,IFNg,10,8.569967185621248e-5,1.7315039801691227e-4,-8.982002578871924,-9.364575858005939,-8.66117682304549,9,0.5735
"ZMapp2, 72h",Pool2,Rhesus,15,1.564675094913041e-4,IFNg,10,1.1528910123248875e-4,2.0085529937268363e-4,-8.76250569686991,-9.06795236471318,-8.512724937305231,13,0.34575
"ZMapp1, 72h",Pool2,Rhesus,11,1.0026025963573912e-4,IFNg.IL2,11,6.146834730878265e-5,1.4171046926052765e-4,-9.207640891221871,-9.696926723313346,-8.861582810207489,9,0.752
"ZMapp2, 72h",Pool2,Rhesus,15,6.789868156904024e-5,IFNg.IL2,11,4.213206799227468e-5,9.752835000619367e-5,-9.59742603984671,-10.074659264243943,-9.235269919825171,13,0.7265
"ZMapp1, 72h",Pool2,Rhesus,11,1.5662948501907537e-5,IFNg.IL2.IL4,12,2.870801751805443e-6,3.401315945423119e-5,-11.064196939683777,-12.76091634036973,-10.288729051720425,9,0.38575
"ZMapp2, 72h",Pool2,Rhesus,15,1.2232184638854205e-5,IFNg.IL2.IL4,12,2.4882933347424986e-6,2.613091086802593e-5,-11.311427762452432,-12.903911001924431,-10.55236548869687,13,0.48875
"ZMapp1, 72h",Pool2,Rhesus,11,1.1360485659484006e-5,IFNg.IL4,13,1.2838133274607737e-6,2.6454588668295327e-5,-11.385358033319765,-13.5656744630491,-10.540054475144444,9,0.0035
"ZMapp2, 72h",Pool2,Rhesus,15,1.2188562152395642e-5,IFNg.IL4,13,2.5790242458159138e-6,2.576894784235572e-5,-11.315000385835503,-12.868096850834725,-10.566314593633017,13,0.006
"ZMapp1, 72h",Pool2,Rhesus,11,0.0010540284798873792,IL2,14,9.322297957190223e-4,0.0011867801781144736,-6.854081224103458,-6.976998547147643,-6.735323886687201,9,0.99975
"ZMapp2, 72h",Pool2,Rhesus,15,0.001488042146062184,IL2,14,0.0013527913803137346,0.0016255286687650594,-6.5088048686255195,-6.604231424908903,-6.420295330211644,13,1
"ZMapp1, 72h",Pool2,Rhesus,11,4.9578706982696986e-5,IL2.IL4,15,2.4899830356022666e-5,8.032401825936545e-5,-9.911899531174386,-10.600624667387597,-9.429361547898264,9,0.105
"ZMapp2, 72h",Pool2,Rhesus,15,4.801278406971235e-5,IL2.IL4,15,2.503985015990804e-5,7.469415005767713e-5,-9.943995233794801,-10.59501695561585,-9.502034084433175,13,0.00225
"ZMapp1, 72h",Pool2,Rhesus,11,5.085988039554982e-4,IL4,16,4.2206401173656744e-4,5.969140537774397e-4,-7.583342328435605,-7.769931415746143,-7.423140326179393,9,0
"ZMapp2, 72h",Pool2,Rhesus,15,0.0016176133760778277,IL4,16,0.0014814593491556047,0.0017636237316799818,-6.425184517518358,-6.513245072509029,-6.338619467439428,13,0
"ZMapp1, 72h",Pool3,Rhesus,12,0.9738124178038564,All.Neg,1,0.9730016523028028,0.9745237539708206,3.615933359138713,3.584610112605845,3.644202404442994,9,0
"ZMapp2, 72h",Pool3,Rhesus,16,0.9853539747224054,All.Neg,1,0.9849076751035521,0.9858078312406213,4.208831955274587,4.178361576322926,4.240771121626741,13,0.421
"ZMapp1, 72h",Pool3,Rhesus,12,0.013269294371059025,CD107a,2,0.01271423109472024,0.013868471810869375,-4.308944488717806,-4.352237605612318,-4.264171692640493,9,0
"ZMapp2, 72h",Pool3,Rhesus,16,0.008456414755573675,CD107a,2,0.008094623765830334,0.008808902157564039,-4.764337609851247,-4.808427607177694,-4.723144530115672,13,0.34375
"ZMapp1, 72h",Pool3,Rhesus,12,1.2600624922475247e-4,CD107a.IFNg,3,7.569220241419401e-5,1.86638883724987e-4,-8.979053041032163,-9.4887597141767,-8.586148254865183,9,1
"ZMapp2, 72h",Pool3,Rhesus,16,2.3020980059831047e-5,CD107a.IFNg,3,7.129406444361226e-6,4.3363887149017156e-5,-10.679081560055858,-11.851275445206658,-10.04584019175297,13,0.3265
"ZMapp1, 72h",Pool3,Rhesus,12,6.783684274994021e-4,CD107a.IFNg.IL2,4,5.54224753192085e-4,8.139126753861627e-4,-7.295141415599116,-7.497385883412647,-7.112843232029706,9,1
"ZMapp2, 72h",Pool3,Rhesus,16,1.1155643956986843e-4,CD107a.IFNg.IL2,4,7.063166476559509e-5,1.552633124115198e-4,-9.100868347986673,-9.557961370428375,-8.770232817237497,13,1
"ZMapp1, 72h",Pool3,Rhesus,12,0.007994206841163577,CD107a.IFNg.IL2.IL4,5,0.007523033423997102,0.008426483281809876,-4.821011812639928,-4.882234367335706,-4.76791357424822,9,1
"ZMapp2, 72h",Pool3,Rhesus,16,0.0017440942749892873,CD107a.IFNg.IL2.IL4,5,0.0015758661245255992,0.0019020182120736634,-6.349774281218292,-6.451373128414033,-6.2629359103364175,13,1
"ZMapp1, 72h",Pool3,Rhesus,12,1.7063063652452506e-5,CD107a.IFNg.IL4,6,1.7915150223625373e-6,4.105372404087437e-5,-10.978577387779525,-13.23244712336546,-10.100587951982314,9,0.29425
"ZMapp2, 72h",Pool3,Rhesus,16,2.8891805469741317e-6,CD107a.IFNg.IL4,6,1.5504064994433142e-9,1.2024119779334094e-5,-12.754534754622295,-20.284748681143025,-11.32858391968335,13,0.0205
"ZMapp1, 72h",Pool3,Rhesus,12,0.0014158447500717554,CD107a.IL2,7,0.0012227943774057808,0.0015957336760173578,-6.558612081495992,-6.705393023488404,-6.438824655327058,9,1
"ZMapp2, 72h",Pool3,Rhesus,16,7.607266492356829e-4,CD107a.IL2,7,6.456988121069249e-4,8.671249416681321e-4,-7.18047544790906,-7.344531490666299,-7.049459982417263,13,1
"ZMapp1, 72h",Pool3,Rhesus,12,3.574607820762821e-4,CD107a.IL2.IL4,8,2.6389561975781917e-4,4.5308565469518244e-4,-7.936127377647264,-8.239692982260019,-7.698976178813879,9,1
"ZMapp2, 72h",Pool3,Rhesus,16,2.959193128056612e-4,CD107a.IL2.IL4,8,2.2706584670189591e-4,3.6427913058332065e-4,-8.125127769567332,-8.390043417339388,-7.9172257964426205,13,1
"ZMapp1, 72h",Pool3,Rhesus,12,3.65034757729675e-5,CD107a.IL4,9,1.0133358087336986e-5,6.824638591048729e-5,-10.218066571110914,-11.499667661984454,-9.592317830278994,9,0.06475
"ZMapp2, 72h",Pool3,Rhesus,16,7.444678786880576e-5,CD107a.IL4,9,4.402212239865331e-5,1.1018025661087633e-4,-9.505351495017058,-10.03077424551945,-9.113282650580482,13,0
"ZMapp1, 72h",Pool3,Rhesus,12,1.5784491479386824e-4,IFNg,10,1.040392391548464e-4,2.2663636498742196e-4,-8.753739701538795,-9.170638385765042,-8.39193707922685,9,0.82775
"ZMapp2, 72h",Pool3,Rhesus,16,1.9854742539548358e-4,IFNg,10,1.440084503113122e-4,2.543447213558094e-4,-8.524284000366118,-8.845494558572067,-8.276565663304842,13,0.78075
"ZMapp1, 72h",Pool3,Rhesus,12,6.889272315827282e-5,IFNg.IL2,11,3.094386538978202e-5,1.1425070382069487e-4,-9.582891104964755,-10.383304844482074,-9.077001110621815,9,0.34475
"ZMapp2, 72h",Pool3,Rhesus,16,8.675308924655873e-5,IFNg.IL2,11,5.443579466895348e-5,1.2469679547517394e-4,-9.352357772007506,-9.818434192968576,-8.989500698911217,13,0.921
"ZMapp1, 72h",Pool3,Rhesus,12,4.547745460001369e-6,IFNg.IL2.IL4,12,1.1213541264055012e-9,1.8885732049449206e-5,-12.300874403344343,-20.60872883938658,-10.87708495310095,9,0.09125
"ZMapp2, 72h",Pool3,Rhesus,16,1.0600539056729897e-5,IFNg.IL2.IL4,12,1.4309932713846444e-6,2.558785280186952e-5,-11.45459510313557,-13.457140328444005,-10.573367230836267,13,0.43175
"ZMapp1, 72h",Pool3,Rhesus,12,1.0661606107759778e-5,IFNg.IL4,13,3.2985306518457563e-7,2.909928480047204e-5,-11.44885082214352,-14.924618208805542,-10.444767861684028,9,0.00575
"ZMapp2, 72h",Pool3,Rhesus,16,1.0486994177979805e-5,IFNg.IL4,13,1.2689868529101513e-6,2.5826271329131424e-5,-11.465364231228454,-13.577290460494918,-10.564092488944656,13,0.006
"ZMapp1, 72h",Pool3,Rhesus,12,0.001520436237112092,IL2,14,0.0013399671447559024,0.0017202639935375125,-6.487236393926732,-6.613769318455274,-6.363555769972737,9,1
"ZMapp2, 72h",Pool3,Rhesus,16,0.0014816160292845358,IL2,14,0.001337748898652584,0.0016379293144264024,-6.513139160521673,-6.615428359573123,-6.412683175881037,13,1
"ZMapp1, 72h",Pool3,Rhesus,12,4.279287221482007e-5,IL2.IL4,15,1.4956073817508684e-5,7.91177888202615e-5,-10.059096212494413,-11.110378109030789,-9.4444936972871,9,0.0765
"ZMapp2, 72h",Pool3,Rhesus,16,1.1491739018384287e-4,IL2.IL4,15,7.746825208775723e-5,1.5687872390424896e-4,-9.071182109969063,-9.465564884762298,-8.759880619294258,13,0.522
"ZMapp1, 72h",Pool3,Rhesus,12,4.620570352475077e-4,IL4,16,3.586675342372247e-4,5.755164456034153e-4,-7.679360057769043,-7.932755955165738,-7.45966707189132,9,0
"ZMapp2, 72h",Pool3,Rhesus,16,0.0012495011881678499,IL4,16,0.0011268339671671624,0.0014013520431287723,-6.6837605743094235,-6.787215908288714,-6.568915428445527,13,0
