Alexa Fluor 488-A :: IL-2,PE-A :: IL-4,PerCP-Cy5-5-A :: CD4,PE-Cy7-A :: CD8,Brilliant Violet 421-A :: CD107a,AmCyan-A :: Live_Dead,APC-A :: IFNg,Alexa Fluor 700-A :: CD3
1,0.27741542,0.047066295,0.006800138,0.042887,0.019296,0,0
0.024855,1,0.48392845,0.211251298,0,0,0,0
0.000734458,0,1,0.201623844,0.00929287,0.008015574,0.024495194,0.075701248
0.001149796,0.010494987,0.0002,1,0.001420657,0,0.001801006,0.00334992
0,0.001717,0.002267,0.000276351,1,0.03,0.003013,0.001631
0.022,0.000674546,0,0,0.6,1,0.000782219,-0.000223295
0.000712,0.004407648,0.006173,0.014720412,0,0,1,0.172862
0,0.005257631,0.08486,0,0,0,0.011656,1
