Alexa Fluor 488-A,PE-A,PerCP-Cy5-5-A,PE-Cy7-A,Pacific Blue-A,APC-A,Alexa Fluor 700-A
1,0.3,0.632021105,0.151233606,0,0.17,0.17877348
0.08,1,0.561325175,0.082618846,0,0.281941639,0.136367597
0,0,1,0.206996302,0,0.021378915,0.084651926
0.000605847,0.011224775,0.007055588,1,-5.09891E-05,0.00116043,0.003314727
0,0.003036702,0.002717326,0.000477835,1,0.004627527,0.003505198
0,0.001988743,0.012245723,0.001133247,0.005,1,0.189595662
0.003529473,0.0019854,0.036738911,0.017192407,0,0.012356832,1
