Alexa Fluor 488-A :: IL-2,PE-A :: IL-4,PerCP-Cy5-5-A :: CD4,PE-Cy7-A :: CD8,Pacific Blue-A :: CD107a,APC-A :: IFNg,Alexa Fluor 700-A :: CD3
1,0.3,0.446046876,0.141425857,0.21,0,0.096167502
0.04,1,0.816341314,0.218282835,0.01,0.02,0.182547322
0,0,1,0.206332076,0,0.021837733,0.092823606
0.000360251,0.019388408,0.011216,1,-0.000562653,0.001747389,0.003497087
0,0,0.000731,0.001288,1,0,0.011073028
0,0,0,0,0,1,0.218218
0.002365592,0,0.058128331,0.027328106,0,0.017635721,1
