alias,pop,parent,dims,gating_method,gating_args,collapseDataForGating,groupBy,preprocessing_method,preprocessing_args
boundary,boundary,root,"FSC-A,SSC-A",boundary,"max=c(2.5e5,2.5e5)",TRUE,,,
singlet,singlet,boundary,"FSC-A,FSC-H",singletGate,"prediction_level=0.999,wider_gate=TRUE,subsample_pct=0.2",TRUE,,,
nonNeutro,nonNeutro-,singlet,SSC-A,mindensity,"gate_range=c(5e4,1.5e5)",TRUE,,,
lymph,lymph,nonNeutro,"FSC-A,SSC-A",flowClust,"K=2,quantile=0.99",TRUE,,,
viable,viable-,lymph,AmCyan-A,boundary,max=c(3.1),TRUE,,,
cd3,cd3,viable,Alexa Fluor 700-A,mindensity,,TRUE,,,
CD8+,CD8+,cd3,PE-Cy7-A,flowClust,K=2,TRUE,,,
CD8-,CD8-,cd3,PE-Cy7-A,flowClust,K=2,TRUE,,,
CD4+,CD4+,cd3,PerCP-Cy5-5-A,mindensity,,TRUE,,,
CD4-,CD4-,cd3,PerCP-Cy5-5-A,mindensity,,TRUE,,,
CD8,"CD4-,CD8+",cd3,"CD4,CD8",refGate,CD4-:CD8+,TRUE,,,
CD4,"CD4+,CD8-",cd3,"CD4,CD8",refGate,CD4+:CD8-,TRUE,,,
IL2,IL2,CD4,Alexa Fluor 488-A,tailgate,,FALSE,,standardize_flowset,
CD107a,CD107a,CD4,Brilliant Violet 421-A,tailgate,"num_peaks = 2, ref_peak = 2, strict = FALSE",FALSE,,standardize_flowset,
IL4,IL4,CD4,PE-A,tailgate,,FALSE,,standardize_flowset,
IFNg,IFNg,CD4,APC-A,tailgate,,FALSE,,standardize_flowset,
IL2,IL2,CD8,Alexa Fluor 488-A,tailgate,,FALSE,,standardize_flowset,
CD107a,CD107a,CD8,Brilliant Violet 421-A,tailgate,"num_peaks = 2, ref_peak = 2, strict = FALSE",FALSE,,standardize_flowset,
IL4,IL4,CD8,PE-A,tailgate,,FALSE,,standardize_flowset,
IFNg,IFNg,CD8,APC-A,tailgate,,FALSE,,standardize_flowset,
