Animal,maxGEQ
0804042,5.159771094498866
0807115,2.921066685513496
0901077i,4.500000046671104
0901174,3.9898021194620465
0905147,3.652432612050665
0906211,3.7644711899114127
0908171,0
1003201,NA
1004163,2.651864374237839
1004217,3.905684223241434
1005135,5.240341715126927
1005211,2.9668896306848964
1008141,3.3210606706132304
110,3.298519479993305
116,2.211761093707362
144,3.6380394544357415
2121,4.007446483036453
3063,4.511308241706987
359i,2.8333333530575557
4077i,0
4078i,4.16666658748227
4121,6.789036763990561
4195,2.6532028626796222
4209,5.562899560380123
5175,4.368308459595313
5179,5.185767261054467
5183,5.414659807830588
5185,4.178862750221363
5187,5.581317452925078
6005,6.387625452599124
6217,5.040988919507314
6221,6.5164624538953
6225,4.839383384744199
6235,4.849752102108835
63i,5.833333353057556
642,3.0760462953565004
7121,6.014012457338903
7123,4.765909621844252
7125,6.120755240911084
905203i,0
